PCBNEW-LibModule-V1  2023-05-21 09:21:58
# encoding utf-8
Units mm
$INDEX
RJHSE5380
$EndINDEX
$MODULE RJHSE5380
Po 0 0 0 15 6469d4a6 00000000 ~~
Li RJHSE5380
Cd RJHSE-5380-2
Kw Connector
Sc 0
At STD
AR 
Op 0 0 0
T0 -3.550 0.525 1.27 1.27 0 0.254 N V 21 N "J**"
T1 -3.550 0.525 1.27 1.27 0 0.254 N I 21 N "RJHSE5380"
DS -11.805 8 4.705 8 0.2 24
DS 4.705 8 4.705 -7.75 0.2 24
DS 4.705 -7.75 -11.805 -7.75 0.2 24
DS -11.805 -7.75 -11.805 8 0.2 24
DS -11.805 -7.75 4.705 -7.75 0.1 21
DS 4.705 -7.75 4.705 -7.75 0.1 21
DS 4.705 -7.75 -11.805 -7.75 0.1 21
DS -11.805 -7.75 -11.805 -7.75 0.1 21
DS 4.705 8 -11.805 8 0.1 21
DS -11.805 8 -11.805 8 0.1 21
DS -11.805 8 4.705 8 0.1 21
DS 4.705 8 4.705 8 0.1 21
DS -13.895 -8.75 6.795 -8.75 0.1 24
DS 6.795 -8.75 6.795 9.8 0.1 24
DS 6.795 9.8 -13.895 9.8 0.1 24
DS -13.895 9.8 -13.895 -8.75 0.1 24
DS -11.805 -2.75 -11.805 -2.75 0.1 21
DS -11.805 -2.75 -11.805 -7.75 0.1 21
DS -11.805 -7.75 -11.805 -7.75 0.1 21
DS -11.805 -7.75 -11.805 -2.75 0.1 21
DS 4.705 -7.75 4.705 -7.75 0.1 21
DS 4.705 -7.75 4.705 -2.75 0.1 21
DS 4.705 -2.75 4.705 -2.75 0.1 21
DS 4.705 -2.75 4.705 -7.75 0.1 21
DS 4.705 4 4.705 4 0.1 21
DS 4.705 4 4.705 8 0.1 21
DS 4.705 8 4.705 8 0.1 21
DS 4.705 8 4.705 4 0.1 21
DS -11.805 8 -11.805 8 0.1 21
DS -11.805 8 -11.805 4 0.1 21
DS -11.805 4 -11.805 4 0.1 21
DS -11.805 4 -11.805 8 0.1 21
DS -0.1 8.75 -0.1 8.75 0.2 21
DS 0 8.75 0 8.75 0.2 21
DS -0.1 8.75 -0.1 8.75 0.2 21
DA -0.049999999999999 8.75 -0.100 8.75 -1800 0.2 21
DA -0.049999999999999 8.75 0.000 8.75 -1800 0.2 21
DA -0.049999999999999 8.75 -0.100 8.75 -1800 0.2 21
$PAD
Po 0.000 -0
Sh "1" C 1.462 1.462 0 0 900
Dr 0.94 0 0
At STD N 00E0FFFF
Ne 0 ""
$EndPAD
$PAD
Po -1.020 -1.78
Sh "2" C 1.462 1.462 0 0 900
Dr 0.94 0 0
At STD N 00E0FFFF
Ne 0 ""
$EndPAD
$PAD
Po -2.030 -0
Sh "3" C 1.462 1.462 0 0 900
Dr 0.94 0 0
At STD N 00E0FFFF
Ne 0 ""
$EndPAD
$PAD
Po -3.050 -1.78
Sh "4" C 1.462 1.462 0 0 900
Dr 0.94 0 0
At STD N 00E0FFFF
Ne 0 ""
$EndPAD
$PAD
Po -4.060 -0
Sh "5" C 1.462 1.462 0 0 900
Dr 0.94 0 0
At STD N 00E0FFFF
Ne 0 ""
$EndPAD
$PAD
Po -5.080 -1.78
Sh "6" C 1.462 1.462 0 0 900
Dr 0.94 0 0
At STD N 00E0FFFF
Ne 0 ""
$EndPAD
$PAD
Po -6.090 -0
Sh "7" C 1.462 1.462 0 0 900
Dr 0.94 0 0
At STD N 00E0FFFF
Ne 0 ""
$EndPAD
$PAD
Po -7.110 -1.78
Sh "8" C 1.462 1.462 0 0 900
Dr 0.94 0 0
At STD N 00E0FFFF
Ne 0 ""
$EndPAD
$PAD
Po -11.680 -0.89
Sh "MH1" C 2.430 2.430 0 0 900
Dr 1.62 0 0
At STD N 00E0FFFF
Ne 0 ""
$EndPAD
$PAD
Po 4.580 -0.89
Sh "MH2" C 2.430 2.430 0 0 900
Dr 1.62 0 0
At STD N 00E0FFFF
Ne 0 ""
$EndPAD
$PAD
Po 2.800 2.54
Sh "MH3" C 1.650 1.650 0 0 900
Dr 3.3 0 0
At STD N 00E0FFFF
Ne 0 ""
$EndPAD
$PAD
Po -9.900 2.54
Sh "MH4" C 1.650 1.650 0 0 900
Dr 3.3 0 0
At STD N 00E0FFFF
Ne 0 ""
$EndPAD
$EndMODULE RJHSE5380
$EndLIBRARY
