<?xml version="1.0" encoding="utf-8"?>
<!--/12975473/1128490/2.50/10/4/Connector/-->
<!DOCTYPE curve SYSTEM "eagle.dtd">
<eagle version="7.7.0">
<drawing>
<settings>
<setting alwaysvectorfont="no"/>
<setting verticaltext="up"/>
</settings>
<grid distance="0.1" unitdist="inch" unit="inch" style="lines" multiple="1" display="no" altdistance="0.01" altunitdist="inch" altunit="inch"/>
<layers>
<layer number="1" name="Top" color="4" fill="1" visible="yes" active="yes"/>
<layer number="16" name="Bottom" color="1" fill="1" visible="yes" active="yes"/>
<layer number="17" name="Pads" color="2" fill="1" visible="yes" active="yes"/>
<layer number="18" name="Vias" color="2" fill="1" visible="yes" active="yes"/>
<layer number="19" name="Unrouted" color="6" fill="1" visible="yes" active="yes"/>
<layer number="20" name="Dimension" color="15" fill="1" visible="yes" active="yes"/>
<layer number="21" name="tPlace" color="7" fill="1" visible="yes" active="yes"/>
<layer number="22" name="bPlace" color="7" fill="1" visible="yes" active="yes"/>
<layer number="23" name="tOrigins" color="15" fill="1" visible="yes" active="yes"/>
<layer number="24" name="bOrigins" color="15" fill="1" visible="yes" active="yes"/>
<layer number="25" name="tNames" color="7" fill="1" visible="yes" active="yes"/>
<layer number="26" name="bNames" color="7" fill="1" visible="yes" active="yes"/>
<layer number="27" name="tValues" color="7" fill="1" visible="yes" active="yes"/>
<layer number="28" name="bValues" color="7" fill="1" visible="yes" active="yes"/>
<layer number="29" name="tStop" color="7" fill="3" visible="no" active="yes"/>
<layer number="30" name="bStop" color="7" fill="6" visible="no" active="yes"/>
<layer number="31" name="tCream" color="7" fill="4" visible="no" active="yes"/>
<layer number="32" name="bCream" color="7" fill="5" visible="no" active="yes"/>
<layer number="33" name="tFinish" color="6" fill="3" visible="no" active="yes"/>
<layer number="34" name="bFinish" color="6" fill="6" visible="no" active="yes"/>
<layer number="35" name="tGlue" color="7" fill="4" visible="no" active="yes"/>
<layer number="36" name="bGlue" color="7" fill="5" visible="no" active="yes"/>
<layer number="37" name="tTest" color="7" fill="1" visible="no" active="yes"/>
<layer number="38" name="bTest" color="7" fill="1" visible="no" active="yes"/>
<layer number="39" name="tKeepout" color="4" fill="11" visible="yes" active="yes"/>
<layer number="40" name="bKeepout" color="1" fill="11" visible="yes" active="yes"/>
<layer number="41" name="tRestrict" color="4" fill="10" visible="yes" active="yes"/>
<layer number="42" name="bRestrict" color="1" fill="10" visible="yes" active="yes"/>
<layer number="43" name="vRestrict" color="2" fill="10" visible="yes" active="yes"/>
<layer number="44" name="Drills" color="7" fill="1" visible="no" active="yes"/>
<layer number="45" name="Holes" color="7" fill="1" visible="no" active="yes"/>
<layer number="46" name="Milling" color="3" fill="1" visible="no" active="yes"/>
<layer number="47" name="Measures" color="7" fill="1" visible="no" active="yes"/>
<layer number="48" name="Document" color="7" fill="1" visible="yes" active="yes"/>
<layer number="49" name="Reference" color="7" fill="1" visible="yes" active="yes"/>
<layer number="51" name="tDocu" color="7" fill="1" visible="yes" active="yes"/>
<layer number="52" name="bDocu" color="7" fill="1" visible="yes" active="yes"/>
<layer number="90" name="Modules" color="5" fill="1" visible="yes" active="yes"/>
<layer number="91" name="Nets" color="2" fill="1" visible="yes" active="yes"/>
<layer number="92" name="Busses" color="1" fill="1" visible="yes" active="yes"/>
<layer number="93" name="Pins" color="2" fill="1" visible="no" active="yes"/>
<layer number="94" name="Symbols" color="4" fill="1" visible="yes" active="yes"/>
<layer number="95" name="Names" color="7" fill="1" visible="yes" active="yes"/>
<layer number="96" name="Values" color="7" fill="1" visible="yes" active="yes"/>
<layer number="97" name="Info" color="7" fill="1" visible="yes" active="yes"/>
<layer number="98" name="Guide" color="6" fill="1" visible="yes" active="yes"/>
</layers>
<library>
<description>&lt;Modular Connectors / Ethernet Connectors R/A RJ45 SHEILDED 8 CONT NO LEDS&lt;/b&gt;&lt;p&gt;
&lt;author&gt;Created by SamacSys&lt;/author&gt;</description>
<packages>
<package name="RJHSE5380">
<description>&lt;b&gt;RJHSE-5380-2&lt;/b&gt;&lt;br&gt;
</description>
<pad name="1" x="0.000" y="0.000" drill="0.94" diameter="1.462"/>
<pad name="2" x="-1.020" y="1.780" drill="0.94" diameter="1.462"/>
<pad name="3" x="-2.030" y="0.000" drill="0.94" diameter="1.462"/>
<pad name="4" x="-3.050" y="1.780" drill="0.94" diameter="1.462"/>
<pad name="5" x="-4.060" y="0.000" drill="0.94" diameter="1.462"/>
<pad name="6" x="-5.080" y="1.780" drill="0.94" diameter="1.462"/>
<pad name="7" x="-6.090" y="0.000" drill="0.94" diameter="1.462"/>
<pad name="8" x="-7.110" y="1.780" drill="0.94" diameter="1.462"/>
<pad name="MH1" x="-11.680" y="0.890" drill="1.62" diameter="2.430"/>
<pad name="MH2" x="4.580" y="0.890" drill="1.62" diameter="2.430"/>
<hole x="2.800" y="-2.540" drill="3.3"/>
<hole x="-9.900" y="-2.540" drill="3.3"/>
<text x="-3.550" y="-0.525" align="center" size="1.27" layer="25" rot="R0" >&gt;NAME</text>
<text x="-3.550" y="-0.525" align="center" size="1.27" layer="27" rot="R0" >&gt;VALUE</text>
<wire x1="-11.805" y1="-8" x2="4.705" y2="-8" width="0.2" layer="51"/>
<wire x1="4.705" y1="-8" x2="4.705" y2="7.75" width="0.2" layer="51"/>
<wire x1="4.705" y1="7.75" x2="-11.805" y2="7.75" width="0.2" layer="51"/>
<wire x1="-11.805" y1="7.75" x2="-11.805" y2="-8" width="0.2" layer="51"/>
<wire x1="-11.805" y1="7.75" x2="4.705" y2="7.75" width="0.1" layer="21"/>
<wire x1="4.705" y1="7.75" x2="4.705" y2="7.75" width="0.1" layer="21"/>
<wire x1="4.705" y1="7.75" x2="-11.805" y2="7.75" width="0.1" layer="21"/>
<wire x1="-11.805" y1="7.75" x2="-11.805" y2="7.75" width="0.1" layer="21"/>
<wire x1="4.705" y1="-8" x2="-11.805" y2="-8" width="0.1" layer="21"/>
<wire x1="-11.805" y1="-8" x2="-11.805" y2="-8" width="0.1" layer="21"/>
<wire x1="-11.805" y1="-8" x2="4.705" y2="-8" width="0.1" layer="21"/>
<wire x1="4.705" y1="-8" x2="4.705" y2="-8" width="0.1" layer="21"/>
<wire x1="-13.895" y1="8.75" x2="6.795" y2="8.75" width="0.1" layer="51"/>
<wire x1="6.795" y1="8.75" x2="6.795" y2="-9.8" width="0.1" layer="51"/>
<wire x1="6.795" y1="-9.8" x2="-13.895" y2="-9.8" width="0.1" layer="51"/>
<wire x1="-13.895" y1="-9.8" x2="-13.895" y2="8.75" width="0.1" layer="51"/>
<wire x1="-11.805" y1="2.75" x2="-11.805" y2="2.75" width="0.1" layer="21"/>
<wire x1="-11.805" y1="2.75" x2="-11.805" y2="7.75" width="0.1" layer="21"/>
<wire x1="-11.805" y1="7.75" x2="-11.805" y2="7.75" width="0.1" layer="21"/>
<wire x1="-11.805" y1="7.75" x2="-11.805" y2="2.75" width="0.1" layer="21"/>
<wire x1="4.705" y1="7.75" x2="4.705" y2="7.75" width="0.1" layer="21"/>
<wire x1="4.705" y1="7.75" x2="4.705" y2="2.75" width="0.1" layer="21"/>
<wire x1="4.705" y1="2.75" x2="4.705" y2="2.75" width="0.1" layer="21"/>
<wire x1="4.705" y1="2.75" x2="4.705" y2="7.75" width="0.1" layer="21"/>
<wire x1="4.705" y1="-4" x2="4.705" y2="-4" width="0.1" layer="21"/>
<wire x1="4.705" y1="-4" x2="4.705" y2="-8" width="0.1" layer="21"/>
<wire x1="4.705" y1="-8" x2="4.705" y2="-8" width="0.1" layer="21"/>
<wire x1="4.705" y1="-8" x2="4.705" y2="-4" width="0.1" layer="21"/>
<wire x1="-11.805" y1="-8" x2="-11.805" y2="-8" width="0.1" layer="21"/>
<wire x1="-11.805" y1="-8" x2="-11.805" y2="-4" width="0.1" layer="21"/>
<wire x1="-11.805" y1="-4" x2="-11.805" y2="-4" width="0.1" layer="21"/>
<wire x1="-11.805" y1="-4" x2="-11.805" y2="-8" width="0.1" layer="21"/>
<wire x1="-0.1" y1="-8.75" x2="-0.1" y2="-8.75" width="0.2" layer="21"/>
<wire x1="-0.100" y1="-8.750" x2="0.000" y2="-8.750" width="0.2" layer="21" curve="180.0"/>
<wire x1="0" y1="-8.75" x2="0" y2="-8.75" width="0.2" layer="21"/>
<wire x1="0.000" y1="-8.750" x2="-0.100" y2="-8.750" width="0.2" layer="21" curve="180.0"/>
<wire x1="-0.1" y1="-8.75" x2="-0.1" y2="-8.75" width="0.2" layer="21"/>
<wire x1="-0.100" y1="-8.750" x2="0.000" y2="-8.750" width="0.2" layer="21" curve="180.0"/>
</package>
</packages>
<symbols>
<symbol name="RJHSE-5380">
<wire x1="5.08" y1="7.62" x2="20.32" y2="7.62" width="0.254" layer="94"/>
<wire x1="20.32" y1="-7.62" x2="20.32" y2="7.62" width="0.254" layer="94"/>
<wire x1="20.32" y1="-7.62" x2="5.08" y2="-7.62" width="0.254" layer="94"/>
<wire x1="5.08" y1="7.62" x2="5.08" y2="-7.62" width="0.254" layer="94"/>
<text x="21.59" y="12.7" align="center-left" size="1.778" layer="95">&gt;NAME</text>
<text x="21.59" y="10.16" align="center-left" size="1.778" layer="96">&gt;VALUE</text>
<pin name="1" x="15.24" y="-12.7" length="middle" direction="io" rot="R90"/>
<pin name="2" x="15.24" y="12.7" length="middle" direction="io" rot="R270"/>
<pin name="3" x="12.7" y="-12.7" length="middle" direction="io" rot="R90"/>
<pin name="4" x="12.7" y="12.7" length="middle" direction="io" rot="R270"/>
<pin name="5" x="10.16" y="-12.7" length="middle" direction="io" rot="R90"/>
<pin name="6" x="10.16" y="12.7" length="middle" direction="io" rot="R270"/>
<pin name="7" x="7.62" y="-12.7" length="middle" direction="io" rot="R90"/>
<pin name="8" x="7.62" y="12.7" length="middle" direction="io" rot="R270"/>
<pin name="MH1" x="0" y="0" length="middle" direction="io" rot="R0"/>
<pin name="MH2" x="25.4" y="0" length="middle" direction="io" rot="R180"/>
</symbol>
</symbols>
<devicesets>
<deviceset name="RJHSE-5380" prefix="J">
<description>&lt;b&gt;Modular Connectors / Ethernet Connectors R/A RJ45 SHEILDED 8 CONT NO LEDS&lt;/b&gt;&lt;p&gt;
Source: &lt;a href="https://cdn.amphenol-icc.com/media/wysiwyg/files/drawing/rjhse538x.pdf?__cf_chl_jschl_tk__=478250eba51aed25f4fe2cda77edbd2978ad5a31-1600786163-0-AXRJSHvw-DEt3ni3HJOdwRfgZI29HwgnojCR3dluaYzQx2a3z3JqQEB5lUPThYEu_MPqIjT_R76E8Ku5fx7gZkF2tdamJFx-EIuVPWFAzMhhYc"&gt; Datasheet &lt;/a&gt;</description>
<gates>
<gate name="G$1" symbol="RJHSE-5380" x="0" y="0"/>
</gates>
<devices>
<device name="" package="RJHSE5380">
<connects>
<connect gate="G$1" pin="1" pad="1"/>
<connect gate="G$1" pin="2" pad="2"/>
<connect gate="G$1" pin="3" pad="3"/>
<connect gate="G$1" pin="4" pad="4"/>
<connect gate="G$1" pin="5" pad="5"/>
<connect gate="G$1" pin="6" pad="6"/>
<connect gate="G$1" pin="7" pad="7"/>
<connect gate="G$1" pin="8" pad="8"/>
<connect gate="G$1" pin="MH1" pad="MH1"/>
<connect gate="G$1" pin="MH2" pad="MH2"/>
</connects>
<technologies>
<technology name="">
<attribute name="Mouser_Part_Number" value="523-RJHSE-5380" constant="no"/>
<attribute name="Mouser_Price-Stock" value="https://www.mouser.co.uk/ProductDetail/Amphenol-Commercial-Products/RJHSE-5380?qs=rM3ofmSYd5RUaPrWD7oMhw%3D%3D" constant="no"/>
<attribute name="Manufacturer_Name" value="Amphenol" constant="no"/>
<attribute name="Manufacturer_Part_Number" value="RJHSE-5380" constant="no"/>
<attribute name="Description" value="Modular Connectors / Ethernet Connectors R/A RJ45 SHEILDED 8 CONT NO LEDS" constant="no"/>
<attribute name="Height" value="15.97mm" constant="no"/>
</technology>
</technologies>
</device>
</devices>
</deviceset>
</devicesets>
</library>
</drawing>
</eagle>
