(footprint "B25P" (version 20211014) (generator pcbnew)
  (layer "F.Cu")
  (tedit 0)
  (descr "<b>POTENTIOMETER</b><p>\nBeckman Helitrim 25")
  (fp_text reference "REF**" (at -3.175 -3.81) (layer "F.SilkS")
    (effects (font (size 1.143 1.143) (thickness 0.127)) (justify left bottom))
    (tstamp ebad31ce-f9a3-47ec-9e6f-1dc3fd9ed054)
  )
  (fp_text value ">VALUE" (at -3.1496 5.08) (layer "F.Fab")
    (effects (font (size 1.143 1.143) (thickness 0.127)) (justify left bottom))
    (tstamp 44b5b5a8-6bcd-48a4-ad05-953d753b9355)
  )
  (fp_text user "1" (at -2.921 2.794) (layer "F.SilkS")
    (effects (font (size 0.871728 0.871728) (thickness 0.118872)) (justify left bottom))
    (tstamp 3374c9ce-7341-4760-beae-d4e737128197)
  )
  (fp_text user "3" (at 2.413 2.794) (layer "F.SilkS")
    (effects (font (size 0.871728 0.871728) (thickness 0.118872)) (justify left bottom))
    (tstamp 48b9493a-5b47-4e27-8fb9-2d97c6c76f32)
  )
  (fp_line (start 3.175 -3.429) (end -3.175 -3.429) (layer "F.SilkS") (width 0.1524) (tstamp 07450dee-c84f-4013-a718-286af0b0cb0c))
  (fp_line (start -3.175 -3.429) (end -3.429 -3.175) (layer "F.SilkS") (width 0.1524) (tstamp 0953e5c9-61d9-43c1-a0f1-df5ad1cca792))
  (fp_line (start 0.762 -0.762) (end 0.381 -1.143) (layer "F.SilkS") (width 0.1524) (tstamp 0d298b4e-5365-4bee-a122-9e59034c52de))
  (fp_line (start 0.635 3.429) (end 2.54 3.429) (layer "F.SilkS") (width 0.1524) (tstamp 0d32416b-c36c-4392-8e2a-730cc3e7fe5e))
  (fp_line (start 0.381 -2.286) (end -0.381 -2.286) (layer "F.SilkS") (width 0.1524) (tstamp 123a48f9-3bbb-4345-be17-607d587bfb8a))
  (fp_line (start -3.175 3.429) (end -2.54 3.429) (layer "F.SilkS") (width 0.1524) (tstamp 13dc8239-4032-497b-a2c4-b1242c415096))
  (fp_line (start 1.016 3.048) (end 2.54 3.048) (layer "F.SilkS") (width 0.1524) (tstamp 18b09227-d2b2-4cf2-aed5-e88f4d5c76c6))
  (fp_line (start -1.524 -0.762) (end -1.524 0) (layer "F.SilkS") (width 0.1524) (tstamp 2aba9d22-fb8e-4a7e-ae5e-4d8ac2d6b7e4))
  (fp_line (start -0.381 0.381) (end -0.381 0.762) (layer "F.SilkS") (width 0.1524) (tstamp 306684c7-c8fb-412a-8fcb-681f6371de65))
  (fp_line (start 3.175 -3.429) (end 3.429 -3.175) (layer "F.SilkS") (width 0.1524) (tstamp 327ea4a3-66f0-4b1c-8f9a-e9eb73200109))
  (fp_line (start -2.54 3.429) (end -0.635 3.429) (layer "F.SilkS") (width 0.1524) (tstamp 3cb55b93-fcc9-4051-b4d6-7580eeeb83b5))
  (fp_line (start 0.381 -1.524) (end -0.381 -1.524) (layer "F.SilkS") (width 0.1524) (tstamp 3da528b7-b151-4a25-85e7-df64527e075a))
  (fp_line (start 1.524 0) (end 1.524 -0.762) (layer "F.SilkS") (width 0.1524) (tstamp 4058e320-8f59-4b2c-8a85-7785b6065f00))
  (fp_line (start 0.762 0) (end 1.524 0) (layer "F.SilkS") (width 0.1524) (tstamp 4cc8b5ac-d184-4d6c-b90e-f9de43614ce2))
  (fp_line (start 3.429 3.175) (end 3.429 1.524) (layer "F.SilkS") (width 0.1524) (tstamp 4e7b0293-cc7d-4ab7-a34e-b433462d836c))
  (fp_line (start 0.381 1.524) (end 0.381 0.762) (layer "F.SilkS") (width 0.1524) (tstamp 54a9430e-c0ea-4975-bdf1-6db7a124902d))
  (fp_line (start 2.54 3.429) (end 3.175 3.429) (layer "F.SilkS") (width 0.1524) (tstamp 5553dd90-2ee3-478a-b762-17de323c532f))
  (fp_line (start -3.175 3.429) (end -3.429 3.175) (layer "F.SilkS") (width 0.1524) (tstamp 5f18472c-f42d-4226-8ad3-5c163ce79663))
  (fp_line (start -0.381 -2.286) (end -0.381 -1.524) (layer "F.SilkS") (width 0.1524) (tstamp 5fb97c31-a817-472e-9511-b5c7819539be))
  (fp_line (start 1.524 -0.762) (end 0.762 -0.762) (layer "F.SilkS") (width 0.1524) (tstamp 604fba8a-8999-4467-a913-d8a4965a22b4))
  (fp_line (start 1.778 -2.032) (end 2.032 -2.286) (layer "F.SilkS") (width 0.3048) (tstamp 660ba6c3-553b-4dad-b6e4-47390865a244))
  (fp_line (start 0.381 -1.524) (end 0.381 -2.286) (layer "F.SilkS") (width 0.1524) (tstamp 6835848e-e001-4e9a-9675-8d11aaa5ec55))
  (fp_line (start -0.381 0.762) (end -0.381 1.524) (layer "F.SilkS") (width 0.1524) (tstamp 6947dd79-af70-4703-aa48-e182646f247b))
  (fp_line (start -0.381 0.381) (end -0.762 0) (layer "F.SilkS") (width 0.1524) (tstamp 6f7fdbfd-ceee-450a-b2b3-a4cd5d67dd23))
  (fp_line (start -1.905 -2.032) (end -2.159 -2.286) (layer "F.SilkS") (width 0.3048) (tstamp 705c83ab-a9c5-4c0f-ab2c-5ad798a8d454))
  (fp_line (start -0.381 -1.524) (end -0.381 -1.143) (layer "F.SilkS") (width 0.1524) (tstamp 71eeea96-f927-4b22-9d52-74b219187b29))
  (fp_line (start 0.381 0.762) (end 0.381 0.381) (layer "F.SilkS") (width 0.1524) (tstamp 721aff91-c2b8-47e9-8e14-b187077e8fe6))
  (fp_line (start -0.762 -0.762) (end -1.524 -0.762) (layer "F.SilkS") (width 0.1524) (tstamp 7fe4565b-9c07-46b7-9eb2-7548329a1448))
  (fp_line (start -2.54 3.048) (end -1.016 3.048) (layer "F.SilkS") (width 0.1524) (tstamp 82645cd6-5554-47ce-ab18-e81af87a6d3c))
  (fp_line (start -3.429 1.524) (end -3.429 3.175) (layer "F.SilkS") (width 0.1524) (tstamp 83790e86-836c-4267-ac9f-373a0daba3ce))
  (fp_line (start 0.381 0.762) (end -0.381 0.762) (layer "F.SilkS") (width 0.1524) (tstamp 8d586c54-e1ea-479f-aa63-f57a15f4a633))
  (fp_line (start -0.381 -1.143) (end -0.762 -0.762) (layer "F.SilkS") (width 0.1524) (tstamp a11e2501-da30-4ab0-984b-7ff865031350))
  (fp_line (start -2.54 3.048) (end -2.54 3.429) (layer "F.SilkS") (width 0.1524) (tstamp afa337a2-e47b-453f-9652-2d98c1076891))
  (fp_line (start 3.175 3.429) (end 3.429 3.175) (layer "F.SilkS") (width 0.1524) (tstamp b96d7981-0d2f-4652-b145-9e19f046133d))
  (fp_line (start 0.381 -1.143) (end 0.381 -1.524) (layer "F.SilkS") (width 0.1524) (tstamp bb6912f8-dbc8-4948-a582-92cf7a21d272))
  (fp_line (start -2.3876 -0.381) (end -2.7686 -0.381) (layer "F.SilkS") (width 0.3048) (tstamp c36fcc16-7c62-495a-b2b9-7baff1356b01))
  (fp_line (start -0.381 1.524) (end 0.381 1.524) (layer "F.SilkS") (width 0.1524) (tstamp ca69d791-ccbc-451f-bb9b-d5d544480951))
  (fp_line (start 3.429 0.254) (end 3.429 -3.175) (layer "F.SilkS") (width 0.1524) (tstamp d3b40208-8910-48f7-98ca-dcc792c6682e))
  (fp_line (start 0 -2.7178) (end 0 -3.0988) (layer "F.SilkS") (width 0.3048) (tstamp dc0fd94b-0907-44bc-9958-0ffff37e973d))
  (fp_line (start -1.524 0) (end -0.762 0) (layer "F.SilkS") (width 0.1524) (tstamp dc18ee53-29e7-482c-b77c-fc70d4f90c8b))
  (fp_line (start 2.3876 -0.381) (end 2.7686 -0.381) (layer "F.SilkS") (width 0.3048) (tstamp e3fd3c38-f23b-4b83-b247-0238c599bb91))
  (fp_line (start 2.54 3.429) (end 2.54 3.048) (layer "F.SilkS") (width 0.1524) (tstamp eb9f548e-a33a-4fb9-a340-f676c988b5fb))
  (fp_line (start 0.381 0.381) (end 0.762 0) (layer "F.SilkS") (width 0.1524) (tstamp ebf55d42-fef7-44ab-a3e2-a36c0bba947a))
  (fp_line (start -3.429 -3.175) (end -3.429 0.254) (layer "F.SilkS") (width 0.1524) (tstamp f088c279-e46c-421e-8ba9-fd9b03a4975a))
  (fp_line (start -3.429 0.254) (end -3.429 1.524) (layer "F.Fab") (width 0.1524) (tstamp 05d8c05f-05f2-4f66-927e-3d2a5943c438))
  (fp_line (start 1.778 1.397) (end 2.032 1.651) (layer "F.Fab") (width 0.3048) (tstamp 7b95041d-5cdf-4904-861d-1fdf4614bc48))
  (fp_line (start -0.635 3.429) (end 0.635 3.429) (layer "F.Fab") (width 0.1524) (tstamp ae860c08-76f1-4677-81c3-3c5d42f05595))
  (fp_line (start -1.778 1.397) (end -2.032 1.651) (layer "F.Fab") (width 0.3048) (tstamp b679261f-3967-424a-9ef3-f93a27743559))
  (fp_line (start 3.429 1.524) (end 3.429 0.254) (layer "F.Fab") (width 0.1524) (tstamp dd978753-8eb7-497f-a72d-1cd6fc352298))
  (fp_line (start -1.016 3.048) (end 1.016 3.048) (layer "F.Fab") (width 0.1524) (tstamp e2ebcbaf-a93a-4a5c-a8e5-ad29c43e17e2))
  (fp_circle (center 0 -0.381) (end 2.032 -0.381) (layer "F.Fab") (width 0.1524) (fill none) (tstamp d58ca57e-b055-4793-8558-add1e60800b4))
  (pad "A" thru_hole roundrect (at -2.54 0) (size 1.3208 1.3208) (drill 0.8128) (layers *.Cu *.Mask) (roundrect_rratio 0.25)
    (chamfer_ratio 0.2928932188) (chamfer top_left top_right bottom_left bottom_right)
    (solder_mask_margin 0.1016) (tstamp 38407a50-4e5a-411c-8cf5-d5d99b99feca))
  (pad "E" thru_hole roundrect (at 2.54 0) (size 1.3208 1.3208) (drill 0.8128) (layers *.Cu *.Mask) (roundrect_rratio 0.25)
    (chamfer_ratio 0.2928932188) (chamfer top_left top_right bottom_left bottom_right)
    (solder_mask_margin 0.1016) (tstamp d5b96901-d800-45f3-b65f-56410f9f2ec4))
  (pad "S" thru_hole roundrect (at 0 -2.54) (size 1.3208 1.3208) (drill 0.8128) (layers *.Cu *.Mask) (roundrect_rratio 0.25)
    (chamfer_ratio 0.2928932188) (chamfer top_left top_right bottom_left bottom_right)
    (solder_mask_margin 0.1016) (tstamp 33c3be04-4a47-401a-bbfc-9e5d4272034d))
)
