(footprint "LD1085V50" (version 20221018) (generator pcbnew)
  (layer "F.Cu")
  (descr "TO-220-3, Vertical, RM 2.54mm, see https://www.vishay.com/docs/66542/to-220-1.pdf")
  (tags "TO-220-3 Vertical RM 2.54mm")
  (property "Mouser" "511-LD1085V50")
  (property "Sheetfile" "scarab.kicad_sch")
  (property "Sheetname" "")
  (property "ki_description" "Positive 1.5A 35V Linear Regulator, Fixed Output 5V, TO-220/TO-263/TO-252")
  (property "ki_keywords" "Voltage Regulator 1.5A Positive")
  (attr through_hole)
  (fp_text reference "IC1" (at 2.54 -2.54) (layer "F.SilkS")
      (effects (font (size 1 1) (thickness 0.15)))
    (tstamp 2536b944-75cf-4cdc-a4a5-4593dfda0970)
  )
  (fp_text value "LD1085V50" (at 2.54 2.5) (layer "F.Fab")
      (effects (font (size 1 1) (thickness 0.15)))
    (tstamp 6e2b6612-c39a-4398-9acf-df0fceed0b53)
  )
  (fp_text user "${REFERENCE}" (at 2.54 -4.27) (layer "F.Fab")
      (effects (font (size 1 1) (thickness 0.15)))
    (tstamp 9cf1f8bd-1996-4f68-bee4-1285b377125d)
  )
  (fp_line (start -2.58 -3.27) (end -2.58 1.371)
    (stroke (width 0.12) (type solid)) (layer "F.SilkS") (tstamp 94d78854-1408-4382-9666-960d2216c60f))
  (fp_line (start -2.58 -3.27) (end 7.66 -3.27)
    (stroke (width 0.12) (type solid)) (layer "F.SilkS") (tstamp 17336f15-2daa-49ae-921a-31fea2294ac2))
  (fp_line (start -2.58 -1.76) (end 7.66 -1.76)
    (stroke (width 0.12) (type solid)) (layer "F.SilkS") (tstamp 6f4ce9c6-4a17-4a86-8b61-39262aba4bf9))
  (fp_line (start -2.58 1.371) (end 7.66 1.371)
    (stroke (width 0.12) (type solid)) (layer "F.SilkS") (tstamp bdcaf1c1-6def-4daa-9d90-f02f8ac8d907))
  (fp_line (start 0.69 -3.27) (end 0.69 -1.76)
    (stroke (width 0.12) (type solid)) (layer "F.SilkS") (tstamp 996b8652-aca0-46c1-8946-2fc99504f6f6))
  (fp_line (start 4.391 -3.27) (end 4.391 -1.76)
    (stroke (width 0.12) (type solid)) (layer "F.SilkS") (tstamp 2501b61b-2cc4-4901-a18c-6b8bac994d86))
  (fp_line (start 7.66 -3.27) (end 7.66 1.371)
    (stroke (width 0.12) (type solid)) (layer "F.SilkS") (tstamp 7b53c3ae-b1e5-4c26-abda-75153fa62d91))
  (fp_line (start -2.71 -3.4) (end -2.71 1.51)
    (stroke (width 0.05) (type solid)) (layer "F.CrtYd") (tstamp 86624483-5c98-4a2b-aa20-896a8d6aff4e))
  (fp_line (start -2.71 1.51) (end 7.79 1.51)
    (stroke (width 0.05) (type solid)) (layer "F.CrtYd") (tstamp 5c7aef8e-5558-4276-be17-920ae3e7203f))
  (fp_line (start 7.79 -3.4) (end -2.71 -3.4)
    (stroke (width 0.05) (type solid)) (layer "F.CrtYd") (tstamp 76f39f5d-5015-42de-9446-96a337522245))
  (fp_line (start 7.79 1.51) (end 7.79 -3.4)
    (stroke (width 0.05) (type solid)) (layer "F.CrtYd") (tstamp 974e7d0d-9603-49bc-a7f9-906c7b62134f))
  (fp_line (start -2.46 -3.15) (end -2.46 1.25)
    (stroke (width 0.1) (type solid)) (layer "F.Fab") (tstamp 5a96d90c-b790-4f3d-bf30-7c4bf6b4382d))
  (fp_line (start -2.46 -1.88) (end 7.54 -1.88)
    (stroke (width 0.1) (type solid)) (layer "F.Fab") (tstamp f5a9f5d6-0a27-4cfe-926c-9113df984136))
  (fp_line (start -2.46 1.25) (end 7.54 1.25)
    (stroke (width 0.1) (type solid)) (layer "F.Fab") (tstamp 49e7ff2d-e944-445c-be37-5e0d0d86af31))
  (fp_line (start 0.69 -3.15) (end 0.69 -1.88)
    (stroke (width 0.1) (type solid)) (layer "F.Fab") (tstamp 796e8cd0-c6d1-45c4-8534-89eecc67d7f1))
  (fp_line (start 4.39 -3.15) (end 4.39 -1.88)
    (stroke (width 0.1) (type solid)) (layer "F.Fab") (tstamp 2983a508-c1a3-494f-8871-13c589c22108))
  (fp_line (start 7.54 -3.15) (end -2.46 -3.15)
    (stroke (width 0.1) (type solid)) (layer "F.Fab") (tstamp 6d4c48a9-1a64-4a91-8540-90e6cc726767))
  (fp_line (start 7.54 1.25) (end 7.54 -3.15)
    (stroke (width 0.1) (type solid)) (layer "F.Fab") (tstamp 15ef269c-dad5-4fe7-bbed-82fa8f5dc388))
  (pad "1" thru_hole rect (at 0 0) (size 1.905 2) (drill 1.1) (layers "*.Cu" "*.Mask") (tstamp be8f43e6-f824-4521-90ae-88f64e9c1e86))
  (pad "2" thru_hole oval (at 2.54 0) (size 1.905 2) (drill 1.1) (layers "*.Cu" "*.Mask") (tstamp 803869da-0e79-4a84-8701-b1271c8ff0e7))
  (pad "3" thru_hole oval (at 5.08 0) (size 1.905 2) (drill 1.1) (layers "*.Cu" "*.Mask") (tstamp 3323865f-df64-4968-8d44-0d183a0363de))
  (model "${KICAD6_3DMODEL_DIR}/Package_TO_SOT_THT.3dshapes/TO-220-3_Vertical.wrl"
    (offset (xyz 0 0 0))
    (scale (xyz 1 1 1))
    (rotate (xyz 0 0 0))
  )
)
