(kicad_sch (version 20230121) (generator eeschema)

  (uuid af8ad80f-3613-4b36-9b85-6075727fe1d0)

  (paper "A5")

  (title_block
    (title "HD44780 / LCD2004 I2C Display Interface")
    (date "2023-03-19")
    (rev "0.5")
    (company "Chris RYU")
  )

  (lib_symbols
    (symbol "Connector_Generic:Conn_01x16" (pin_names (offset 1.016) hide) (in_bom yes) (on_board yes)
      (property "Reference" "J" (at 0 20.32 0)
        (effects (font (size 1.27 1.27)))
      )
      (property "Value" "Conn_01x16" (at 0 -22.86 0)
        (effects (font (size 1.27 1.27)))
      )
      (property "Footprint" "" (at 0 0 0)
        (effects (font (size 1.27 1.27)) hide)
      )
      (property "Datasheet" "~" (at 0 0 0)
        (effects (font (size 1.27 1.27)) hide)
      )
      (property "ki_keywords" "connector" (at 0 0 0)
        (effects (font (size 1.27 1.27)) hide)
      )
      (property "ki_description" "Generic connector, single row, 01x16, script generated (kicad-library-utils/schlib/autogen/connector/)" (at 0 0 0)
        (effects (font (size 1.27 1.27)) hide)
      )
      (property "ki_fp_filters" "Connector*:*_1x??_*" (at 0 0 0)
        (effects (font (size 1.27 1.27)) hide)
      )
      (symbol "Conn_01x16_1_1"
        (rectangle (start -1.27 -20.193) (end 0 -20.447)
          (stroke (width 0.1524) (type default))
          (fill (type none))
        )
        (rectangle (start -1.27 -17.653) (end 0 -17.907)
          (stroke (width 0.1524) (type default))
          (fill (type none))
        )
        (rectangle (start -1.27 -15.113) (end 0 -15.367)
          (stroke (width 0.1524) (type default))
          (fill (type none))
        )
        (rectangle (start -1.27 -12.573) (end 0 -12.827)
          (stroke (width 0.1524) (type default))
          (fill (type none))
        )
        (rectangle (start -1.27 -10.033) (end 0 -10.287)
          (stroke (width 0.1524) (type default))
          (fill (type none))
        )
        (rectangle (start -1.27 -7.493) (end 0 -7.747)
          (stroke (width 0.1524) (type default))
          (fill (type none))
        )
        (rectangle (start -1.27 -4.953) (end 0 -5.207)
          (stroke (width 0.1524) (type default))
          (fill (type none))
        )
        (rectangle (start -1.27 -2.413) (end 0 -2.667)
          (stroke (width 0.1524) (type default))
          (fill (type none))
        )
        (rectangle (start -1.27 0.127) (end 0 -0.127)
          (stroke (width 0.1524) (type default))
          (fill (type none))
        )
        (rectangle (start -1.27 2.667) (end 0 2.413)
          (stroke (width 0.1524) (type default))
          (fill (type none))
        )
        (rectangle (start -1.27 5.207) (end 0 4.953)
          (stroke (width 0.1524) (type default))
          (fill (type none))
        )
        (rectangle (start -1.27 7.747) (end 0 7.493)
          (stroke (width 0.1524) (type default))
          (fill (type none))
        )
        (rectangle (start -1.27 10.287) (end 0 10.033)
          (stroke (width 0.1524) (type default))
          (fill (type none))
        )
        (rectangle (start -1.27 12.827) (end 0 12.573)
          (stroke (width 0.1524) (type default))
          (fill (type none))
        )
        (rectangle (start -1.27 15.367) (end 0 15.113)
          (stroke (width 0.1524) (type default))
          (fill (type none))
        )
        (rectangle (start -1.27 17.907) (end 0 17.653)
          (stroke (width 0.1524) (type default))
          (fill (type none))
        )
        (rectangle (start -1.27 19.05) (end 1.27 -21.59)
          (stroke (width 0.254) (type default))
          (fill (type background))
        )
        (pin passive line (at -5.08 17.78 0) (length 3.81)
          (name "Pin_1" (effects (font (size 1.27 1.27))))
          (number "1" (effects (font (size 1.27 1.27))))
        )
        (pin passive line (at -5.08 -5.08 0) (length 3.81)
          (name "Pin_10" (effects (font (size 1.27 1.27))))
          (number "10" (effects (font (size 1.27 1.27))))
        )
        (pin passive line (at -5.08 -7.62 0) (length 3.81)
          (name "Pin_11" (effects (font (size 1.27 1.27))))
          (number "11" (effects (font (size 1.27 1.27))))
        )
        (pin passive line (at -5.08 -10.16 0) (length 3.81)
          (name "Pin_12" (effects (font (size 1.27 1.27))))
          (number "12" (effects (font (size 1.27 1.27))))
        )
        (pin passive line (at -5.08 -12.7 0) (length 3.81)
          (name "Pin_13" (effects (font (size 1.27 1.27))))
          (number "13" (effects (font (size 1.27 1.27))))
        )
        (pin passive line (at -5.08 -15.24 0) (length 3.81)
          (name "Pin_14" (effects (font (size 1.27 1.27))))
          (number "14" (effects (font (size 1.27 1.27))))
        )
        (pin passive line (at -5.08 -17.78 0) (length 3.81)
          (name "Pin_15" (effects (font (size 1.27 1.27))))
          (number "15" (effects (font (size 1.27 1.27))))
        )
        (pin passive line (at -5.08 -20.32 0) (length 3.81)
          (name "Pin_16" (effects (font (size 1.27 1.27))))
          (number "16" (effects (font (size 1.27 1.27))))
        )
        (pin passive line (at -5.08 15.24 0) (length 3.81)
          (name "Pin_2" (effects (font (size 1.27 1.27))))
          (number "2" (effects (font (size 1.27 1.27))))
        )
        (pin passive line (at -5.08 12.7 0) (length 3.81)
          (name "Pin_3" (effects (font (size 1.27 1.27))))
          (number "3" (effects (font (size 1.27 1.27))))
        )
        (pin passive line (at -5.08 10.16 0) (length 3.81)
          (name "Pin_4" (effects (font (size 1.27 1.27))))
          (number "4" (effects (font (size 1.27 1.27))))
        )
        (pin passive line (at -5.08 7.62 0) (length 3.81)
          (name "Pin_5" (effects (font (size 1.27 1.27))))
          (number "5" (effects (font (size 1.27 1.27))))
        )
        (pin passive line (at -5.08 5.08 0) (length 3.81)
          (name "Pin_6" (effects (font (size 1.27 1.27))))
          (number "6" (effects (font (size 1.27 1.27))))
        )
        (pin passive line (at -5.08 2.54 0) (length 3.81)
          (name "Pin_7" (effects (font (size 1.27 1.27))))
          (number "7" (effects (font (size 1.27 1.27))))
        )
        (pin passive line (at -5.08 0 0) (length 3.81)
          (name "Pin_8" (effects (font (size 1.27 1.27))))
          (number "8" (effects (font (size 1.27 1.27))))
        )
        (pin passive line (at -5.08 -2.54 0) (length 3.81)
          (name "Pin_9" (effects (font (size 1.27 1.27))))
          (number "9" (effects (font (size 1.27 1.27))))
        )
      )
    )
    (symbol "Connector_Generic:Conn_02x03_Odd_Even" (pin_names (offset 1.016) hide) (in_bom yes) (on_board yes)
      (property "Reference" "J" (at 1.27 5.08 0)
        (effects (font (size 1.27 1.27)))
      )
      (property "Value" "Conn_02x03_Odd_Even" (at 1.27 -5.08 0)
        (effects (font (size 1.27 1.27)))
      )
      (property "Footprint" "" (at 0 0 0)
        (effects (font (size 1.27 1.27)) hide)
      )
      (property "Datasheet" "~" (at 0 0 0)
        (effects (font (size 1.27 1.27)) hide)
      )
      (property "ki_keywords" "connector" (at 0 0 0)
        (effects (font (size 1.27 1.27)) hide)
      )
      (property "ki_description" "Generic connector, double row, 02x03, odd/even pin numbering scheme (row 1 odd numbers, row 2 even numbers), script generated (kicad-library-utils/schlib/autogen/connector/)" (at 0 0 0)
        (effects (font (size 1.27 1.27)) hide)
      )
      (property "ki_fp_filters" "Connector*:*_2x??_*" (at 0 0 0)
        (effects (font (size 1.27 1.27)) hide)
      )
      (symbol "Conn_02x03_Odd_Even_1_1"
        (rectangle (start -1.27 -2.413) (end 0 -2.667)
          (stroke (width 0.1524) (type default))
          (fill (type none))
        )
        (rectangle (start -1.27 0.127) (end 0 -0.127)
          (stroke (width 0.1524) (type default))
          (fill (type none))
        )
        (rectangle (start -1.27 2.667) (end 0 2.413)
          (stroke (width 0.1524) (type default))
          (fill (type none))
        )
        (rectangle (start -1.27 3.81) (end 3.81 -3.81)
          (stroke (width 0.254) (type default))
          (fill (type background))
        )
        (rectangle (start 3.81 -2.413) (end 2.54 -2.667)
          (stroke (width 0.1524) (type default))
          (fill (type none))
        )
        (rectangle (start 3.81 0.127) (end 2.54 -0.127)
          (stroke (width 0.1524) (type default))
          (fill (type none))
        )
        (rectangle (start 3.81 2.667) (end 2.54 2.413)
          (stroke (width 0.1524) (type default))
          (fill (type none))
        )
        (pin passive line (at -5.08 2.54 0) (length 3.81)
          (name "Pin_1" (effects (font (size 1.27 1.27))))
          (number "1" (effects (font (size 1.27 1.27))))
        )
        (pin passive line (at 7.62 2.54 180) (length 3.81)
          (name "Pin_2" (effects (font (size 1.27 1.27))))
          (number "2" (effects (font (size 1.27 1.27))))
        )
        (pin passive line (at -5.08 0 0) (length 3.81)
          (name "Pin_3" (effects (font (size 1.27 1.27))))
          (number "3" (effects (font (size 1.27 1.27))))
        )
        (pin passive line (at 7.62 0 180) (length 3.81)
          (name "Pin_4" (effects (font (size 1.27 1.27))))
          (number "4" (effects (font (size 1.27 1.27))))
        )
        (pin passive line (at -5.08 -2.54 0) (length 3.81)
          (name "Pin_5" (effects (font (size 1.27 1.27))))
          (number "5" (effects (font (size 1.27 1.27))))
        )
        (pin passive line (at 7.62 -2.54 180) (length 3.81)
          (name "Pin_6" (effects (font (size 1.27 1.27))))
          (number "6" (effects (font (size 1.27 1.27))))
        )
      )
    )
    (symbol "Device:R_Potentiometer_Trim_US" (pin_names (offset 1.016) hide) (in_bom yes) (on_board yes)
      (property "Reference" "RV" (at -4.445 0 90)
        (effects (font (size 1.27 1.27)))
      )
      (property "Value" "R_Potentiometer_Trim_US" (at -2.54 0 90)
        (effects (font (size 1.27 1.27)))
      )
      (property "Footprint" "" (at 0 0 0)
        (effects (font (size 1.27 1.27)) hide)
      )
      (property "Datasheet" "~" (at 0 0 0)
        (effects (font (size 1.27 1.27)) hide)
      )
      (property "ki_keywords" "resistor variable trimpot trimmer" (at 0 0 0)
        (effects (font (size 1.27 1.27)) hide)
      )
      (property "ki_description" "Trim-potentiometer, US symbol" (at 0 0 0)
        (effects (font (size 1.27 1.27)) hide)
      )
      (property "ki_fp_filters" "Potentiometer*" (at 0 0 0)
        (effects (font (size 1.27 1.27)) hide)
      )
      (symbol "R_Potentiometer_Trim_US_0_1"
        (polyline
          (pts
            (xy 0 -2.286)
            (xy 0 -2.54)
          )
          (stroke (width 0) (type default))
          (fill (type none))
        )
        (polyline
          (pts
            (xy 0 2.286)
            (xy 0 2.54)
          )
          (stroke (width 0) (type default))
          (fill (type none))
        )
        (polyline
          (pts
            (xy 1.524 0.762)
            (xy 1.524 -0.762)
          )
          (stroke (width 0) (type default))
          (fill (type none))
        )
        (polyline
          (pts
            (xy 2.54 0)
            (xy 1.524 0)
          )
          (stroke (width 0) (type default))
          (fill (type none))
        )
        (polyline
          (pts
            (xy 0 -0.762)
            (xy 1.016 -1.143)
            (xy 0 -1.524)
            (xy -1.016 -1.905)
            (xy 0 -2.286)
          )
          (stroke (width 0) (type default))
          (fill (type none))
        )
        (polyline
          (pts
            (xy 0 0.762)
            (xy 1.016 0.381)
            (xy 0 0)
            (xy -1.016 -0.381)
            (xy 0 -0.762)
          )
          (stroke (width 0) (type default))
          (fill (type none))
        )
        (polyline
          (pts
            (xy 0 2.286)
            (xy 1.016 1.905)
            (xy 0 1.524)
            (xy -1.016 1.143)
            (xy 0 0.762)
          )
          (stroke (width 0) (type default))
          (fill (type none))
        )
      )
      (symbol "R_Potentiometer_Trim_US_1_1"
        (pin passive line (at 0 3.81 270) (length 1.27)
          (name "1" (effects (font (size 1.27 1.27))))
          (number "1" (effects (font (size 1.27 1.27))))
        )
        (pin passive line (at 3.81 0 180) (length 1.27)
          (name "2" (effects (font (size 1.27 1.27))))
          (number "2" (effects (font (size 1.27 1.27))))
        )
        (pin passive line (at 0 -3.81 90) (length 1.27)
          (name "3" (effects (font (size 1.27 1.27))))
          (number "3" (effects (font (size 1.27 1.27))))
        )
      )
    )
    (symbol "Device:R_Small_US" (pin_numbers hide) (pin_names (offset 0.254) hide) (in_bom yes) (on_board yes)
      (property "Reference" "R" (at 0.762 0.508 0)
        (effects (font (size 1.27 1.27)) (justify left))
      )
      (property "Value" "R_Small_US" (at 0.762 -1.016 0)
        (effects (font (size 1.27 1.27)) (justify left))
      )
      (property "Footprint" "" (at 0 0 0)
        (effects (font (size 1.27 1.27)) hide)
      )
      (property "Datasheet" "~" (at 0 0 0)
        (effects (font (size 1.27 1.27)) hide)
      )
      (property "ki_keywords" "r resistor" (at 0 0 0)
        (effects (font (size 1.27 1.27)) hide)
      )
      (property "ki_description" "Resistor, small US symbol" (at 0 0 0)
        (effects (font (size 1.27 1.27)) hide)
      )
      (property "ki_fp_filters" "R_*" (at 0 0 0)
        (effects (font (size 1.27 1.27)) hide)
      )
      (symbol "R_Small_US_1_1"
        (polyline
          (pts
            (xy 0 0)
            (xy 1.016 -0.381)
            (xy 0 -0.762)
            (xy -1.016 -1.143)
            (xy 0 -1.524)
          )
          (stroke (width 0) (type default))
          (fill (type none))
        )
        (polyline
          (pts
            (xy 0 1.524)
            (xy 1.016 1.143)
            (xy 0 0.762)
            (xy -1.016 0.381)
            (xy 0 0)
          )
          (stroke (width 0) (type default))
          (fill (type none))
        )
        (pin passive line (at 0 2.54 270) (length 1.016)
          (name "~" (effects (font (size 1.27 1.27))))
          (number "1" (effects (font (size 1.27 1.27))))
        )
        (pin passive line (at 0 -2.54 90) (length 1.016)
          (name "~" (effects (font (size 1.27 1.27))))
          (number "2" (effects (font (size 1.27 1.27))))
        )
      )
    )
    (symbol "Device:R_US" (pin_numbers hide) (pin_names (offset 0)) (in_bom yes) (on_board yes)
      (property "Reference" "R" (at 2.54 0 90)
        (effects (font (size 1.27 1.27)))
      )
      (property "Value" "R_US" (at -2.54 0 90)
        (effects (font (size 1.27 1.27)))
      )
      (property "Footprint" "" (at 1.016 -0.254 90)
        (effects (font (size 1.27 1.27)) hide)
      )
      (property "Datasheet" "~" (at 0 0 0)
        (effects (font (size 1.27 1.27)) hide)
      )
      (property "ki_keywords" "R res resistor" (at 0 0 0)
        (effects (font (size 1.27 1.27)) hide)
      )
      (property "ki_description" "Resistor, US symbol" (at 0 0 0)
        (effects (font (size 1.27 1.27)) hide)
      )
      (property "ki_fp_filters" "R_*" (at 0 0 0)
        (effects (font (size 1.27 1.27)) hide)
      )
      (symbol "R_US_0_1"
        (polyline
          (pts
            (xy 0 -2.286)
            (xy 0 -2.54)
          )
          (stroke (width 0) (type default))
          (fill (type none))
        )
        (polyline
          (pts
            (xy 0 2.286)
            (xy 0 2.54)
          )
          (stroke (width 0) (type default))
          (fill (type none))
        )
        (polyline
          (pts
            (xy 0 -0.762)
            (xy 1.016 -1.143)
            (xy 0 -1.524)
            (xy -1.016 -1.905)
            (xy 0 -2.286)
          )
          (stroke (width 0) (type default))
          (fill (type none))
        )
        (polyline
          (pts
            (xy 0 0.762)
            (xy 1.016 0.381)
            (xy 0 0)
            (xy -1.016 -0.381)
            (xy 0 -0.762)
          )
          (stroke (width 0) (type default))
          (fill (type none))
        )
        (polyline
          (pts
            (xy 0 2.286)
            (xy 1.016 1.905)
            (xy 0 1.524)
            (xy -1.016 1.143)
            (xy 0 0.762)
          )
          (stroke (width 0) (type default))
          (fill (type none))
        )
      )
      (symbol "R_US_1_1"
        (pin passive line (at 0 3.81 270) (length 1.27)
          (name "~" (effects (font (size 1.27 1.27))))
          (number "1" (effects (font (size 1.27 1.27))))
        )
        (pin passive line (at 0 -3.81 90) (length 1.27)
          (name "~" (effects (font (size 1.27 1.27))))
          (number "2" (effects (font (size 1.27 1.27))))
        )
      )
    )
    (symbol "Diode:1N4148" (pin_numbers hide) (pin_names hide) (in_bom yes) (on_board yes)
      (property "Reference" "D" (at 0 2.54 0)
        (effects (font (size 1.27 1.27)))
      )
      (property "Value" "1N4148" (at 0 -2.54 0)
        (effects (font (size 1.27 1.27)))
      )
      (property "Footprint" "Diode_THT:D_DO-35_SOD27_P7.62mm_Horizontal" (at 0 0 0)
        (effects (font (size 1.27 1.27)) hide)
      )
      (property "Datasheet" "https://assets.nexperia.com/documents/data-sheet/1N4148_1N4448.pdf" (at 0 0 0)
        (effects (font (size 1.27 1.27)) hide)
      )
      (property "Sim.Device" "D" (at 0 0 0)
        (effects (font (size 1.27 1.27)) hide)
      )
      (property "Sim.Pins" "1=K 2=A" (at 0 0 0)
        (effects (font (size 1.27 1.27)) hide)
      )
      (property "ki_keywords" "diode" (at 0 0 0)
        (effects (font (size 1.27 1.27)) hide)
      )
      (property "ki_description" "100V 0.15A standard switching diode, DO-35" (at 0 0 0)
        (effects (font (size 1.27 1.27)) hide)
      )
      (property "ki_fp_filters" "D*DO?35*" (at 0 0 0)
        (effects (font (size 1.27 1.27)) hide)
      )
      (symbol "1N4148_0_1"
        (polyline
          (pts
            (xy -1.27 1.27)
            (xy -1.27 -1.27)
          )
          (stroke (width 0.254) (type default))
          (fill (type none))
        )
        (polyline
          (pts
            (xy 1.27 0)
            (xy -1.27 0)
          )
          (stroke (width 0) (type default))
          (fill (type none))
        )
        (polyline
          (pts
            (xy 1.27 1.27)
            (xy 1.27 -1.27)
            (xy -1.27 0)
            (xy 1.27 1.27)
          )
          (stroke (width 0.254) (type default))
          (fill (type none))
        )
      )
      (symbol "1N4148_1_1"
        (pin passive line (at -3.81 0 0) (length 2.54)
          (name "K" (effects (font (size 1.27 1.27))))
          (number "1" (effects (font (size 1.27 1.27))))
        )
        (pin passive line (at 3.81 0 180) (length 2.54)
          (name "A" (effects (font (size 1.27 1.27))))
          (number "2" (effects (font (size 1.27 1.27))))
        )
      )
    )
    (symbol "HD44780-I2C-Display:PCF8574P" (in_bom yes) (on_board yes)
      (property "Reference" "IC" (at -7.62 16.51 0)
        (effects (font (size 1.778 1.5113)) (justify left bottom))
      )
      (property "Value" "PCF8574P" (at -7.62 -20.32 0)
        (effects (font (size 1.778 1.5113)) (justify left bottom))
      )
      (property "Footprint" "Display:DIL16" (at 0 0 0)
        (effects (font (size 1.27 1.27)) hide)
      )
      (property "Datasheet" "" (at 0 0 0)
        (effects (font (size 1.27 1.27)) hide)
      )
      (property "ki_locked" "" (at 0 0 0)
        (effects (font (size 1.27 1.27)))
      )
      (symbol "PCF8574P_1_0"
        (rectangle (start -7.62 15.24) (end 10.16 -17.78)
          (stroke (width 0) (type default))
          (fill (type background))
        )
        (pin input line (at -10.16 -5.08 0) (length 2.54)
          (name "A0" (effects (font (size 1.27 1.27))))
          (number "1" (effects (font (size 1.27 1.27))))
        )
        (pin bidirectional line (at 12.7 -5.08 180) (length 2.54)
          (name "P5" (effects (font (size 1.27 1.27))))
          (number "10" (effects (font (size 1.27 1.27))))
        )
        (pin bidirectional line (at 12.7 -7.62 180) (length 2.54)
          (name "P6" (effects (font (size 1.27 1.27))))
          (number "11" (effects (font (size 1.27 1.27))))
        )
        (pin bidirectional line (at 12.7 -10.16 180) (length 2.54)
          (name "P7" (effects (font (size 1.27 1.27))))
          (number "12" (effects (font (size 1.27 1.27))))
        )
        (pin output line (at -10.16 7.62 0) (length 2.54)
          (name "~{INT}" (effects (font (size 1.27 1.27))))
          (number "13" (effects (font (size 1.27 1.27))))
        )
        (pin input line (at -10.16 0 0) (length 2.54)
          (name "SCL" (effects (font (size 1.27 1.27))))
          (number "14" (effects (font (size 1.27 1.27))))
        )
        (pin bidirectional line (at -10.16 2.54 0) (length 2.54)
          (name "SDA" (effects (font (size 1.27 1.27))))
          (number "15" (effects (font (size 1.27 1.27))))
        )
        (pin power_in line (at 12.7 12.7 180) (length 2.54)
          (name "VDD" (effects (font (size 1.27 1.27))))
          (number "16" (effects (font (size 1.27 1.27))))
        )
        (pin input line (at -10.16 -7.62 0) (length 2.54)
          (name "A1" (effects (font (size 1.27 1.27))))
          (number "2" (effects (font (size 1.27 1.27))))
        )
        (pin input line (at -10.16 -10.16 0) (length 2.54)
          (name "A2" (effects (font (size 1.27 1.27))))
          (number "3" (effects (font (size 1.27 1.27))))
        )
        (pin bidirectional line (at 12.7 7.62 180) (length 2.54)
          (name "P0" (effects (font (size 1.27 1.27))))
          (number "4" (effects (font (size 1.27 1.27))))
        )
        (pin bidirectional line (at 12.7 5.08 180) (length 2.54)
          (name "P1" (effects (font (size 1.27 1.27))))
          (number "5" (effects (font (size 1.27 1.27))))
        )
        (pin bidirectional line (at 12.7 2.54 180) (length 2.54)
          (name "P2" (effects (font (size 1.27 1.27))))
          (number "6" (effects (font (size 1.27 1.27))))
        )
        (pin bidirectional line (at 12.7 0 180) (length 2.54)
          (name "P3" (effects (font (size 1.27 1.27))))
          (number "7" (effects (font (size 1.27 1.27))))
        )
        (pin power_in line (at 12.7 -15.24 180) (length 2.54)
          (name "VSS" (effects (font (size 1.27 1.27))))
          (number "8" (effects (font (size 1.27 1.27))))
        )
        (pin bidirectional line (at 12.7 -2.54 180) (length 2.54)
          (name "P4" (effects (font (size 1.27 1.27))))
          (number "9" (effects (font (size 1.27 1.27))))
        )
      )
    )
    (symbol "Transistor_BJT:2N3906" (pin_names (offset 0) hide) (in_bom yes) (on_board yes)
      (property "Reference" "Q" (at 5.08 1.905 0)
        (effects (font (size 1.27 1.27)) (justify left))
      )
      (property "Value" "2N3906" (at 5.08 0 0)
        (effects (font (size 1.27 1.27)) (justify left))
      )
      (property "Footprint" "Package_TO_SOT_THT:TO-92_Inline" (at 5.08 -1.905 0)
        (effects (font (size 1.27 1.27) italic) (justify left) hide)
      )
      (property "Datasheet" "https://www.onsemi.com/pub/Collateral/2N3906-D.PDF" (at 0 0 0)
        (effects (font (size 1.27 1.27)) (justify left) hide)
      )
      (property "ki_keywords" "PNP Transistor" (at 0 0 0)
        (effects (font (size 1.27 1.27)) hide)
      )
      (property "ki_description" "-0.2A Ic, -40V Vce, Small Signal PNP Transistor, TO-92" (at 0 0 0)
        (effects (font (size 1.27 1.27)) hide)
      )
      (property "ki_fp_filters" "TO?92*" (at 0 0 0)
        (effects (font (size 1.27 1.27)) hide)
      )
      (symbol "2N3906_0_1"
        (polyline
          (pts
            (xy 0.635 0.635)
            (xy 2.54 2.54)
          )
          (stroke (width 0) (type default))
          (fill (type none))
        )
        (polyline
          (pts
            (xy 0.635 -0.635)
            (xy 2.54 -2.54)
            (xy 2.54 -2.54)
          )
          (stroke (width 0) (type default))
          (fill (type none))
        )
        (polyline
          (pts
            (xy 0.635 1.905)
            (xy 0.635 -1.905)
            (xy 0.635 -1.905)
          )
          (stroke (width 0.508) (type default))
          (fill (type none))
        )
        (polyline
          (pts
            (xy 2.286 -1.778)
            (xy 1.778 -2.286)
            (xy 1.27 -1.27)
            (xy 2.286 -1.778)
            (xy 2.286 -1.778)
          )
          (stroke (width 0) (type default))
          (fill (type outline))
        )
        (circle (center 1.27 0) (radius 2.8194)
          (stroke (width 0.254) (type default))
          (fill (type none))
        )
      )
      (symbol "2N3906_1_1"
        (pin passive line (at 2.54 -5.08 90) (length 2.54)
          (name "E" (effects (font (size 1.27 1.27))))
          (number "1" (effects (font (size 1.27 1.27))))
        )
        (pin input line (at -5.08 0 0) (length 5.715)
          (name "B" (effects (font (size 1.27 1.27))))
          (number "2" (effects (font (size 1.27 1.27))))
        )
        (pin passive line (at 2.54 5.08 270) (length 2.54)
          (name "C" (effects (font (size 1.27 1.27))))
          (number "3" (effects (font (size 1.27 1.27))))
        )
      )
    )
    (symbol "power:+3.3V" (power) (pin_names (offset 0)) (in_bom yes) (on_board yes)
      (property "Reference" "#PWR" (at 0 -3.81 0)
        (effects (font (size 1.27 1.27)) hide)
      )
      (property "Value" "+3.3V" (at 0 3.556 0)
        (effects (font (size 1.27 1.27)))
      )
      (property "Footprint" "" (at 0 0 0)
        (effects (font (size 1.27 1.27)) hide)
      )
      (property "Datasheet" "" (at 0 0 0)
        (effects (font (size 1.27 1.27)) hide)
      )
      (property "ki_keywords" "global power" (at 0 0 0)
        (effects (font (size 1.27 1.27)) hide)
      )
      (property "ki_description" "Power symbol creates a global label with name \"+3.3V\"" (at 0 0 0)
        (effects (font (size 1.27 1.27)) hide)
      )
      (symbol "+3.3V_0_1"
        (polyline
          (pts
            (xy -0.762 1.27)
            (xy 0 2.54)
          )
          (stroke (width 0) (type default))
          (fill (type none))
        )
        (polyline
          (pts
            (xy 0 0)
            (xy 0 2.54)
          )
          (stroke (width 0) (type default))
          (fill (type none))
        )
        (polyline
          (pts
            (xy 0 2.54)
            (xy 0.762 1.27)
          )
          (stroke (width 0) (type default))
          (fill (type none))
        )
      )
      (symbol "+3.3V_1_1"
        (pin power_in line (at 0 0 90) (length 0) hide
          (name "+3.3V" (effects (font (size 1.27 1.27))))
          (number "1" (effects (font (size 1.27 1.27))))
        )
      )
    )
    (symbol "power:+5V" (power) (pin_names (offset 0)) (in_bom yes) (on_board yes)
      (property "Reference" "#PWR" (at 0 -3.81 0)
        (effects (font (size 1.27 1.27)) hide)
      )
      (property "Value" "+5V" (at 0 3.556 0)
        (effects (font (size 1.27 1.27)))
      )
      (property "Footprint" "" (at 0 0 0)
        (effects (font (size 1.27 1.27)) hide)
      )
      (property "Datasheet" "" (at 0 0 0)
        (effects (font (size 1.27 1.27)) hide)
      )
      (property "ki_keywords" "global power" (at 0 0 0)
        (effects (font (size 1.27 1.27)) hide)
      )
      (property "ki_description" "Power symbol creates a global label with name \"+5V\"" (at 0 0 0)
        (effects (font (size 1.27 1.27)) hide)
      )
      (symbol "+5V_0_1"
        (polyline
          (pts
            (xy -0.762 1.27)
            (xy 0 2.54)
          )
          (stroke (width 0) (type default))
          (fill (type none))
        )
        (polyline
          (pts
            (xy 0 0)
            (xy 0 2.54)
          )
          (stroke (width 0) (type default))
          (fill (type none))
        )
        (polyline
          (pts
            (xy 0 2.54)
            (xy 0.762 1.27)
          )
          (stroke (width 0) (type default))
          (fill (type none))
        )
      )
      (symbol "+5V_1_1"
        (pin power_in line (at 0 0 90) (length 0) hide
          (name "+5V" (effects (font (size 1.27 1.27))))
          (number "1" (effects (font (size 1.27 1.27))))
        )
      )
    )
    (symbol "power:GND" (power) (pin_names (offset 0)) (in_bom yes) (on_board yes)
      (property "Reference" "#PWR" (at 0 -6.35 0)
        (effects (font (size 1.27 1.27)) hide)
      )
      (property "Value" "GND" (at 0 -3.81 0)
        (effects (font (size 1.27 1.27)))
      )
      (property "Footprint" "" (at 0 0 0)
        (effects (font (size 1.27 1.27)) hide)
      )
      (property "Datasheet" "" (at 0 0 0)
        (effects (font (size 1.27 1.27)) hide)
      )
      (property "ki_keywords" "global power" (at 0 0 0)
        (effects (font (size 1.27 1.27)) hide)
      )
      (property "ki_description" "Power symbol creates a global label with name \"GND\" , ground" (at 0 0 0)
        (effects (font (size 1.27 1.27)) hide)
      )
      (symbol "GND_0_1"
        (polyline
          (pts
            (xy 0 0)
            (xy 0 -1.27)
            (xy 1.27 -1.27)
            (xy 0 -2.54)
            (xy -1.27 -1.27)
            (xy 0 -1.27)
          )
          (stroke (width 0) (type default))
          (fill (type none))
        )
      )
      (symbol "GND_1_1"
        (pin power_in line (at 0 0 270) (length 0) hide
          (name "GND" (effects (font (size 1.27 1.27))))
          (number "1" (effects (font (size 1.27 1.27))))
        )
      )
    )
    (symbol "power:PWR_FLAG" (power) (pin_numbers hide) (pin_names (offset 0) hide) (in_bom yes) (on_board yes)
      (property "Reference" "#FLG" (at 0 1.905 0)
        (effects (font (size 1.27 1.27)) hide)
      )
      (property "Value" "PWR_FLAG" (at 0 3.81 0)
        (effects (font (size 1.27 1.27)))
      )
      (property "Footprint" "" (at 0 0 0)
        (effects (font (size 1.27 1.27)) hide)
      )
      (property "Datasheet" "~" (at 0 0 0)
        (effects (font (size 1.27 1.27)) hide)
      )
      (property "ki_keywords" "flag power" (at 0 0 0)
        (effects (font (size 1.27 1.27)) hide)
      )
      (property "ki_description" "Special symbol for telling ERC where power comes from" (at 0 0 0)
        (effects (font (size 1.27 1.27)) hide)
      )
      (symbol "PWR_FLAG_0_0"
        (pin power_out line (at 0 0 90) (length 0)
          (name "pwr" (effects (font (size 1.27 1.27))))
          (number "1" (effects (font (size 1.27 1.27))))
        )
      )
      (symbol "PWR_FLAG_0_1"
        (polyline
          (pts
            (xy 0 0)
            (xy 0 1.27)
            (xy -1.016 1.905)
            (xy 0 2.54)
            (xy 1.016 1.905)
            (xy 0 1.27)
          )
          (stroke (width 0) (type default))
          (fill (type none))
        )
      )
    )
  )

  (junction (at 36.322 25.908) (diameter 0) (color 0 0 0 0)
    (uuid 2be6bddc-893e-4a81-bfe9-41448913ef7f)
  )
  (junction (at 22.098 26.162) (diameter 0) (color 0 0 0 0)
    (uuid 2c293fd7-0070-487d-9cb1-9a8761fd1f0f)
  )
  (junction (at 44.45 19.812) (diameter 0) (color 0 0 0 0)
    (uuid 2dcd2d21-874f-42d7-b2a4-855168e0efb9)
  )
  (junction (at 33.528 50.8) (diameter 0) (color 0 0 0 0)
    (uuid 34c7834e-7b69-4535-844c-d7d1253eeb0b)
  )
  (junction (at 22.098 28.194) (diameter 0) (color 0 0 0 0)
    (uuid 57ee841b-09c0-4ab1-a24c-28346df3114c)
  )
  (junction (at 22.098 33.274) (diameter 0) (color 0 0 0 0)
    (uuid 6103fe85-ff90-4a06-91a8-314f203a0424)
  )
  (junction (at 33.528 73.152) (diameter 0) (color 0 0 0 0)
    (uuid 70d76b46-b0ba-41ac-928e-c3bfbff49a23)
  )
  (junction (at 48.26 33.274) (diameter 0) (color 0 0 0 0)
    (uuid e2b589a7-d960-4180-8bd8-8f92e1b9dbf4)
  )
  (junction (at 39.624 30.734) (diameter 0) (color 0 0 0 0)
    (uuid ed1143d0-a72c-4dc0-b7cf-7bf8e0b67bd7)
  )

  (no_connect (at 149.098 47.498) (uuid 14514371-0ef2-4576-8139-721b66466464))
  (no_connect (at 81.534 32.512) (uuid 2ef3c09a-4e9f-4372-8c02-dcde7c26a4ca))
  (no_connect (at 149.098 39.878) (uuid 6a0030c2-fb21-4d91-854d-f3d25d6d5614))
  (no_connect (at 149.098 44.958) (uuid 73fabd7b-538e-4a4c-b811-116b48df82ef))
  (no_connect (at 149.098 42.418) (uuid b9f97224-3f82-4323-8b21-139295024d6e))

  (wire (pts (xy 23.622 30.734) (xy 22.098 30.734))
    (stroke (width 0) (type default))
    (uuid 06085921-9747-49bf-8b5e-1cd68fd758fd)
  )
  (wire (pts (xy 131.826 71.628) (xy 131.826 69.596))
    (stroke (width 0) (type default))
    (uuid 0a4fa637-e4a1-4ce6-b146-aa7be8a3e990)
  )
  (wire (pts (xy 131.826 90.678) (xy 131.826 93.472))
    (stroke (width 0) (type default))
    (uuid 0c50f857-654e-40cd-88d1-c2c4bba87dc8)
  )
  (wire (pts (xy 123.19 50.292) (xy 123.19 51.054))
    (stroke (width 0) (type default))
    (uuid 0d2d4c87-a5ed-40ef-aaa5-47de14214014)
  )
  (wire (pts (xy 104.394 35.052) (xy 112.014 35.052))
    (stroke (width 0) (type default))
    (uuid 11d178f3-6147-4ebf-a2e9-5480ae38fbb2)
  )
  (wire (pts (xy 104.394 50.292) (xy 123.19 50.292))
    (stroke (width 0) (type default))
    (uuid 16064e1c-4642-420a-ae7c-fa9090e5b22a)
  )
  (wire (pts (xy 81.534 45.212) (xy 76.454 45.212))
    (stroke (width 0) (type default))
    (uuid 1872a60b-fd62-4e30-8928-e114c1a1c693)
  )
  (wire (pts (xy 39.624 19.812) (xy 44.45 19.812))
    (stroke (width 0) (type default))
    (uuid 1e390a31-9677-48a7-942c-2bb656fe69c8)
  )
  (wire (pts (xy 123.19 59.182) (xy 123.19 58.674))
    (stroke (width 0) (type default))
    (uuid 1e3c139d-4706-4274-a9a4-68c5946eae4a)
  )
  (wire (pts (xy 77.724 37.592) (xy 81.534 37.592))
    (stroke (width 0) (type default))
    (uuid 204fd881-b059-4910-8ebe-d0d07c4e8c2b)
  )
  (wire (pts (xy 81.534 50.292) (xy 76.454 50.292))
    (stroke (width 0) (type default))
    (uuid 26f6f077-8be8-43c7-994a-773151bbe4f3)
  )
  (wire (pts (xy 77.724 40.132) (xy 81.534 40.132))
    (stroke (width 0) (type default))
    (uuid 272729b3-a749-4530-83df-a282f97dd00e)
  )
  (wire (pts (xy 131.826 81.788) (xy 131.826 83.058))
    (stroke (width 0) (type default))
    (uuid 2763a9ce-6c89-47f1-a8af-fb9d82be4f5a)
  )
  (wire (pts (xy 123.19 76.708) (xy 124.206 76.708))
    (stroke (width 0) (type default))
    (uuid 2beca9cf-4d15-45b8-a623-5283f7ef7693)
  )
  (wire (pts (xy 33.528 57.658) (xy 33.528 59.436))
    (stroke (width 0) (type default))
    (uuid 315bd5a8-848a-4c4f-8058-a225b4c00c70)
  )
  (wire (pts (xy 147.32 32.258) (xy 149.098 32.258))
    (stroke (width 0) (type default))
    (uuid 33c273e8-3610-4c01-abb1-15a6648135e7)
  )
  (wire (pts (xy 33.528 49.53) (xy 33.528 50.8))
    (stroke (width 0) (type default))
    (uuid 36e32b50-2e12-4044-b8fe-a50c9972732d)
  )
  (wire (pts (xy 147.32 34.798) (xy 149.098 34.798))
    (stroke (width 0) (type default))
    (uuid 38690403-2026-40c7-931f-ed4fe707b28b)
  )
  (wire (pts (xy 147.32 55.118) (xy 149.098 55.118))
    (stroke (width 0) (type default))
    (uuid 388d8133-19f2-4dc8-95f2-9da73b4f52be)
  )
  (wire (pts (xy 30.988 72.136) (xy 30.988 73.152))
    (stroke (width 0) (type default))
    (uuid 3b419e95-0c85-4266-8fa3-792e09627b31)
  )
  (wire (pts (xy 19.558 52.578) (xy 19.558 50.8))
    (stroke (width 0) (type default))
    (uuid 3f5536a9-c350-4b81-bba8-389efe5e257a)
  )
  (wire (pts (xy 18.542 33.274) (xy 22.098 33.274))
    (stroke (width 0) (type default))
    (uuid 47ad95ef-6b39-4992-a589-37590bcfe712)
  )
  (wire (pts (xy 147.32 37.338) (xy 149.098 37.338))
    (stroke (width 0) (type default))
    (uuid 48af06de-ecc0-4ad3-957c-c83029c2fcf3)
  )
  (wire (pts (xy 36.322 22.352) (xy 36.322 25.908))
    (stroke (width 0) (type default))
    (uuid 4ae508d3-f368-4b61-be6c-331c2cfa513a)
  )
  (wire (pts (xy 104.394 27.432) (xy 104.394 24.638))
    (stroke (width 0) (type default))
    (uuid 4df58112-c788-45ed-9da4-c23a05c2039d)
  )
  (wire (pts (xy 22.098 26.162) (xy 22.098 28.194))
    (stroke (width 0) (type default))
    (uuid 4f695b72-3853-407f-9b2a-27f6ba0b4e02)
  )
  (wire (pts (xy 147.32 60.198) (xy 149.098 60.198))
    (stroke (width 0) (type default))
    (uuid 5792058a-baa9-4ffb-80bd-ffa6016a2ba9)
  )
  (wire (pts (xy 39.624 28.956) (xy 39.624 30.734))
    (stroke (width 0) (type default))
    (uuid 60d78af6-5702-4515-a488-b3282177ca7a)
  )
  (wire (pts (xy 22.098 30.734) (xy 22.098 28.194))
    (stroke (width 0) (type default))
    (uuid 704b0491-da7f-43af-b976-13c4098f91cb)
  )
  (wire (pts (xy 33.528 73.152) (xy 33.528 74.168))
    (stroke (width 0) (type default))
    (uuid 712cd9b7-366e-4f1a-82e5-e7d958896c35)
  )
  (wire (pts (xy 33.528 72.136) (xy 33.528 73.152))
    (stroke (width 0) (type default))
    (uuid 71bfc6b8-fd5c-4973-a7dd-e55d184cb6f1)
  )
  (wire (pts (xy 22.098 26.162) (xy 22.098 22.352))
    (stroke (width 0) (type default))
    (uuid 73948ce1-aa4e-40c7-bb4f-0b573931e895)
  )
  (wire (pts (xy 22.098 33.274) (xy 22.098 35.814))
    (stroke (width 0) (type default))
    (uuid 7570dc22-6608-4eef-b740-bb61dd2e5c10)
  )
  (wire (pts (xy 48.26 28.956) (xy 48.26 33.274))
    (stroke (width 0) (type default))
    (uuid 7a00915a-e67a-4378-abee-82aa6c84aaeb)
  )
  (wire (pts (xy 44.45 19.812) (xy 48.26 19.812))
    (stroke (width 0) (type default))
    (uuid 7a3cd93a-6e2a-4890-9949-324ffa8b3ed6)
  )
  (wire (pts (xy 36.068 59.436) (xy 46.99 59.436))
    (stroke (width 0) (type default))
    (uuid 7eb6e10f-15e0-40ca-90b6-21cb4528a6ed)
  )
  (wire (pts (xy 104.394 32.512) (xy 112.014 32.512))
    (stroke (width 0) (type default))
    (uuid 8126c8d5-d00d-4242-aeb1-f578f2bd1358)
  )
  (wire (pts (xy 81.534 47.752) (xy 76.454 47.752))
    (stroke (width 0) (type default))
    (uuid 8200f547-8a10-40ef-b6d2-88fba199346e)
  )
  (wire (pts (xy 104.394 37.592) (xy 112.014 37.592))
    (stroke (width 0) (type default))
    (uuid 823be41c-10e4-4bed-a7d4-e69fe3a530ff)
  )
  (wire (pts (xy 104.394 55.372) (xy 107.442 55.372))
    (stroke (width 0) (type default))
    (uuid 863f9c2a-e00e-4d74-b5c8-0f8c210c171b)
  )
  (wire (pts (xy 147.32 24.638) (xy 149.098 24.638))
    (stroke (width 0) (type default))
    (uuid 8bdddd58-c7ef-4eab-aa2f-4cedff0ab190)
  )
  (wire (pts (xy 104.394 42.672) (xy 112.268 42.672))
    (stroke (width 0) (type default))
    (uuid 8cba2eca-956f-4150-82ad-6f2a0bbb5219)
  )
  (wire (pts (xy 24.384 86.868) (xy 24.384 87.884))
    (stroke (width 0) (type default))
    (uuid 8cc85162-e374-481f-b3cf-c59f383a9b54)
  )
  (wire (pts (xy 28.194 91.694) (xy 29.464 91.694))
    (stroke (width 0) (type default))
    (uuid 8e3116eb-56f2-406c-b7c4-56a39b507e82)
  )
  (wire (pts (xy 39.624 21.336) (xy 39.624 19.812))
    (stroke (width 0) (type default))
    (uuid 8e96dfc8-df5e-4f94-9488-82e8ded99da9)
  )
  (wire (pts (xy 147.32 52.578) (xy 149.098 52.578))
    (stroke (width 0) (type default))
    (uuid 8f6bed2f-eb63-4ae3-8c03-28d1b88e802c)
  )
  (wire (pts (xy 49.022 33.274) (xy 48.26 33.274))
    (stroke (width 0) (type default))
    (uuid 93daabd7-6dcf-49f3-b11a-6c23752b372f)
  )
  (wire (pts (xy 147.32 29.718) (xy 149.098 29.718))
    (stroke (width 0) (type default))
    (uuid 95a6660c-34a4-4e90-9698-ff42c8e52730)
  )
  (wire (pts (xy 22.098 28.194) (xy 23.622 28.194))
    (stroke (width 0) (type default))
    (uuid 96cc9fba-f0f0-40da-9147-251906caec70)
  )
  (wire (pts (xy 123.19 75.184) (xy 123.19 76.708))
    (stroke (width 0) (type default))
    (uuid a3705dc3-928f-4fa9-8f95-b6e7abbd93b0)
  )
  (wire (pts (xy 147.32 62.738) (xy 149.098 62.738))
    (stroke (width 0) (type default))
    (uuid a95150ae-e377-450d-b71c-29ab28728dea)
  )
  (wire (pts (xy 30.988 73.152) (xy 33.528 73.152))
    (stroke (width 0) (type default))
    (uuid ad7343c5-88d9-4526-9bbf-ce98c71bea5c)
  )
  (wire (pts (xy 23.622 33.274) (xy 22.098 33.274))
    (stroke (width 0) (type default))
    (uuid af9aacea-98ae-467d-aa24-25bd3fb4787c)
  )
  (wire (pts (xy 39.624 30.734) (xy 40.64 30.734))
    (stroke (width 0) (type default))
    (uuid b3d72896-ad0d-4e1c-8d5d-93c419f754a5)
  )
  (wire (pts (xy 19.558 59.436) (xy 30.988 59.436))
    (stroke (width 0) (type default))
    (uuid b78c710d-00d8-41ec-9f24-aa6b9303d5eb)
  )
  (wire (pts (xy 46.99 57.658) (xy 46.99 59.436))
    (stroke (width 0) (type default))
    (uuid bde3505d-64fd-43f2-ae24-8be4056b9189)
  )
  (wire (pts (xy 104.394 45.212) (xy 112.014 45.212))
    (stroke (width 0) (type default))
    (uuid c137b5f9-7872-49d2-8204-afb4b48a5f4f)
  )
  (wire (pts (xy 147.32 57.658) (xy 149.098 57.658))
    (stroke (width 0) (type default))
    (uuid c3fa473e-3b8b-4755-aca4-99fe26c5cb93)
  )
  (wire (pts (xy 36.322 25.908) (xy 36.322 28.194))
    (stroke (width 0) (type default))
    (uuid c5ac291e-2cba-4732-9e0a-753834d4080e)
  )
  (wire (pts (xy 24.384 95.504) (xy 24.384 99.314))
    (stroke (width 0) (type default))
    (uuid c78070fb-0c0b-4fc3-9f2c-d3d21b595ab8)
  )
  (wire (pts (xy 147.32 27.178) (xy 149.098 27.178))
    (stroke (width 0) (type default))
    (uuid c97f98a3-0a5b-4936-9d68-faab751a70a8)
  )
  (wire (pts (xy 33.528 73.152) (xy 36.068 73.152))
    (stroke (width 0) (type default))
    (uuid cf3a88a8-55cb-4de5-8690-4e4f216afc85)
  )
  (wire (pts (xy 104.394 40.132) (xy 112.014 40.132))
    (stroke (width 0) (type default))
    (uuid d8978974-8785-40a3-8c04-e2a4dd06a029)
  )
  (wire (pts (xy 19.558 50.8) (xy 33.528 50.8))
    (stroke (width 0) (type default))
    (uuid da33c927-dd0b-4383-8cbe-37e9f2f22f7c)
  )
  (wire (pts (xy 48.26 19.812) (xy 48.26 21.336))
    (stroke (width 0) (type default))
    (uuid daa442ac-318f-4b4c-883e-38eecec1e1d7)
  )
  (wire (pts (xy 104.394 47.752) (xy 112.014 47.752))
    (stroke (width 0) (type default))
    (uuid e1ba7daa-f315-4216-90a3-4b8a42fe94a0)
  )
  (wire (pts (xy 36.068 73.152) (xy 36.068 72.136))
    (stroke (width 0) (type default))
    (uuid e27cc6b6-fdae-4e31-a3b1-7a4d5fa381d6)
  )
  (wire (pts (xy 19.558 57.658) (xy 19.558 59.436))
    (stroke (width 0) (type default))
    (uuid e3e8292d-9176-4223-a28e-77edacd240ae)
  )
  (wire (pts (xy 147.32 50.038) (xy 149.098 50.038))
    (stroke (width 0) (type default))
    (uuid e89632ff-15e9-4490-9cb9-c6140eb00e36)
  )
  (wire (pts (xy 20.828 26.162) (xy 22.098 26.162))
    (stroke (width 0) (type default))
    (uuid ebc61e70-3b36-40d0-9cf3-7eb160e50137)
  )
  (wire (pts (xy 33.528 50.8) (xy 33.528 52.578))
    (stroke (width 0) (type default))
    (uuid ebd605ac-c043-4201-80c2-e2c563371caf)
  )
  (wire (pts (xy 48.26 33.274) (xy 36.322 33.274))
    (stroke (width 0) (type default))
    (uuid ecb7d14b-e046-40f2-bb7c-d82289ba814c)
  )
  (wire (pts (xy 107.442 55.372) (xy 107.442 59.944))
    (stroke (width 0) (type default))
    (uuid ed6ec5c9-61db-405b-bfd8-32e87d0ee59c)
  )
  (wire (pts (xy 36.322 30.734) (xy 39.624 30.734))
    (stroke (width 0) (type default))
    (uuid edceb0e5-b78d-4582-941a-b18ce5b1f7f6)
  )
  (wire (pts (xy 46.99 50.8) (xy 46.99 52.578))
    (stroke (width 0) (type default))
    (uuid f5debb6f-91dc-4dc2-81ff-ec9b6b10e8fe)
  )
  (wire (pts (xy 33.528 50.8) (xy 46.99 50.8))
    (stroke (width 0) (type default))
    (uuid f6a7d69e-4b68-44d4-a179-4132e77ba17e)
  )
  (wire (pts (xy 123.19 66.802) (xy 123.19 67.564))
    (stroke (width 0) (type default))
    (uuid fa2582c0-db24-4852-80fb-3b024c459770)
  )

  (rectangle (start 13.462 44.958) (end 58.674 79.248)
    (stroke (width 0) (type default))
    (fill (type none))
    (uuid 12a55a2b-4f4d-4c20-9b4f-ea2f190d96c2)
  )
  (rectangle (start 13.462 13.716) (end 58.674 44.45)
    (stroke (width 0) (type default))
    (fill (type none))
    (uuid 28ba324e-3571-4d6b-897b-e041e0c863ee)
  )
  (rectangle (start 13.462 79.756) (end 38.1 107.95)
    (stroke (width 0) (type default))
    (fill (type none))
    (uuid eeaea71e-699a-4e53-815e-d69ce8fc70e5)
  )

  (text "I2C Address Selection" (at 35.56 78.486 0)
    (effects (font (size 1.27 1.27)) (justify left bottom))
    (uuid 3e75795e-7ee9-4663-b15a-d051cb620181)
  )
  (text "I2C Interface" (at 44.958 43.688 0)
    (effects (font (size 1.27 1.27)) (justify left bottom))
    (uuid b437741a-5d69-4b1a-a8ef-b100f506e82c)
  )
  (text "LCD Brightness" (at 23.114 107.442 0)
    (effects (font (size 1.27 1.27)) (justify left bottom))
    (uuid bfc1e167-9c3f-4647-ac18-82f55fb8350a)
  )

  (global_label "GND" (shape input) (at 147.32 24.638 180) (fields_autoplaced)
    (effects (font (size 1.27 1.27)) (justify right))
    (uuid 0ea645fd-71f4-4423-8f63-26f163bec60b)
    (property "Intersheetrefs" "${INTERSHEET_REFS}" (at 140.5437 24.638 0)
      (effects (font (size 1.27 1.27)) (justify right) hide)
    )
  )
  (global_label "E" (shape input) (at 147.32 37.338 180) (fields_autoplaced)
    (effects (font (size 1.27 1.27)) (justify right))
    (uuid 1526151e-c603-492f-af9e-2a4bcfa60ab4)
    (property "Intersheetrefs" "${INTERSHEET_REFS}" (at 143.2652 37.338 0)
      (effects (font (size 1.27 1.27)) (justify right) hide)
    )
  )
  (global_label "A2" (shape input) (at 46.99 58.166 0) (fields_autoplaced)
    (effects (font (size 1.27 1.27)) (justify left))
    (uuid 16648467-51c7-4007-8f3c-82135ff80e3a)
    (property "Intersheetrefs" "${INTERSHEET_REFS}" (at 52.1939 58.166 0)
      (effects (font (size 1.27 1.27)) (justify left) hide)
    )
  )
  (global_label "GND" (shape input) (at 147.32 62.738 180) (fields_autoplaced)
    (effects (font (size 1.27 1.27)) (justify right))
    (uuid 2289aa85-0b07-4f24-bde6-87ade149b6ea)
    (property "Intersheetrefs" "${INTERSHEET_REFS}" (at 140.5437 62.738 0)
      (effects (font (size 1.27 1.27)) (justify right) hide)
    )
  )
  (global_label "A1" (shape input) (at 76.454 47.752 180) (fields_autoplaced)
    (effects (font (size 1.27 1.27)) (justify right))
    (uuid 259348e8-fe42-456a-a009-59421f67b7fb)
    (property "Intersheetrefs" "${INTERSHEET_REFS}" (at 71.2501 47.752 0)
      (effects (font (size 1.27 1.27)) (justify right) hide)
    )
  )
  (global_label "A1" (shape input) (at 33.528 58.42 0) (fields_autoplaced)
    (effects (font (size 1.27 1.27)) (justify left))
    (uuid 2658562c-23d7-4b3e-aed4-e2cbc664ed36)
    (property "Intersheetrefs" "${INTERSHEET_REFS}" (at 38.7319 58.42 0)
      (effects (font (size 1.27 1.27)) (justify left) hide)
    )
  )
  (global_label "SCL" (shape input) (at 49.022 33.274 0) (fields_autoplaced)
    (effects (font (size 1.27 1.27)) (justify left))
    (uuid 2827cc6b-32c9-4378-95b7-104c628f4060)
    (property "Intersheetrefs" "${INTERSHEET_REFS}" (at 55.4354 33.274 0)
      (effects (font (size 1.27 1.27)) (justify left) hide)
    )
  )
  (global_label "DB7" (shape input) (at 147.32 57.658 180) (fields_autoplaced)
    (effects (font (size 1.27 1.27)) (justify right))
    (uuid 28326468-1416-4c89-970a-f4b7400a83ff)
    (property "Intersheetrefs" "${INTERSHEET_REFS}" (at 140.6647 57.658 0)
      (effects (font (size 1.27 1.27)) (justify right) hide)
    )
  )
  (global_label "SDA" (shape input) (at 40.64 30.734 0) (fields_autoplaced)
    (effects (font (size 1.27 1.27)) (justify left))
    (uuid 2baa46a5-f5ce-4610-8b58-6c595964c1fb)
    (property "Intersheetrefs" "${INTERSHEET_REFS}" (at 47.1139 30.734 0)
      (effects (font (size 1.27 1.27)) (justify left) hide)
    )
  )
  (global_label "A0" (shape input) (at 76.454 45.212 180) (fields_autoplaced)
    (effects (font (size 1.27 1.27)) (justify right))
    (uuid 309d521a-d651-4696-853c-4deb1e1c8aca)
    (property "Intersheetrefs" "${INTERSHEET_REFS}" (at 71.2501 45.212 0)
      (effects (font (size 1.27 1.27)) (justify right) hide)
    )
  )
  (global_label "SDA" (shape input) (at 77.724 37.592 180) (fields_autoplaced)
    (effects (font (size 1.27 1.27)) (justify right))
    (uuid 3d2231a9-4265-4f25-a82f-325de8000366)
    (property "Intersheetrefs" "${INTERSHEET_REFS}" (at 71.2501 37.592 0)
      (effects (font (size 1.27 1.27)) (justify right) hide)
    )
  )
  (global_label "SCL" (shape input) (at 77.724 40.132 180) (fields_autoplaced)
    (effects (font (size 1.27 1.27)) (justify right))
    (uuid 500d73e4-f814-4e5a-8a6f-b595ddf8564f)
    (property "Intersheetrefs" "${INTERSHEET_REFS}" (at 71.3106 40.132 0)
      (effects (font (size 1.27 1.27)) (justify right) hide)
    )
  )
  (global_label "A2" (shape input) (at 76.454 50.292 180) (fields_autoplaced)
    (effects (font (size 1.27 1.27)) (justify right))
    (uuid 5373a284-1e3d-4f9f-8294-6dcd1969d774)
    (property "Intersheetrefs" "${INTERSHEET_REFS}" (at 71.2501 50.292 0)
      (effects (font (size 1.27 1.27)) (justify right) hide)
    )
  )
  (global_label "DB4" (shape input) (at 147.32 50.038 180) (fields_autoplaced)
    (effects (font (size 1.27 1.27)) (justify right))
    (uuid 5979c991-287f-4e54-b3af-c3276483ca1e)
    (property "Intersheetrefs" "${INTERSHEET_REFS}" (at 140.6647 50.038 0)
      (effects (font (size 1.27 1.27)) (justify right) hide)
    )
  )
  (global_label "DB4" (shape input) (at 112.014 32.512 0) (fields_autoplaced)
    (effects (font (size 1.27 1.27)) (justify left))
    (uuid 61bfefeb-a055-4b4e-8004-14cacd31cca8)
    (property "Intersheetrefs" "${INTERSHEET_REFS}" (at 118.6693 32.512 0)
      (effects (font (size 1.27 1.27)) (justify left) hide)
    )
  )
  (global_label "A0" (shape input) (at 19.558 58.42 0) (fields_autoplaced)
    (effects (font (size 1.27 1.27)) (justify left))
    (uuid 6b494444-013e-4aa5-8150-dce4e479f549)
    (property "Intersheetrefs" "${INTERSHEET_REFS}" (at 24.7619 58.42 0)
      (effects (font (size 1.27 1.27)) (justify left) hide)
    )
  )
  (global_label "+5V" (shape input) (at 147.32 27.178 180) (fields_autoplaced)
    (effects (font (size 1.27 1.27)) (justify right))
    (uuid 875ca22d-8e17-4b10-b34d-05e1622788de)
    (property "Intersheetrefs" "${INTERSHEET_REFS}" (at 140.5437 27.178 0)
      (effects (font (size 1.27 1.27)) (justify right) hide)
    )
  )
  (global_label "RS" (shape input) (at 147.32 32.258 180) (fields_autoplaced)
    (effects (font (size 1.27 1.27)) (justify right))
    (uuid 8cb97be6-40f3-4d65-bb2c-92fda656b2bf)
    (property "Intersheetrefs" "${INTERSHEET_REFS}" (at 141.9347 32.258 0)
      (effects (font (size 1.27 1.27)) (justify right) hide)
    )
  )
  (global_label "BLA" (shape input) (at 131.826 93.472 0) (fields_autoplaced)
    (effects (font (size 1.27 1.27)) (justify left))
    (uuid 8e613492-28e4-4a99-b180-70b2ebbb38ea)
    (property "Intersheetrefs" "${INTERSHEET_REFS}" (at 138.1185 93.472 0)
      (effects (font (size 1.27 1.27)) (justify left) hide)
    )
  )
  (global_label "DB6" (shape input) (at 112.014 37.592 0) (fields_autoplaced)
    (effects (font (size 1.27 1.27)) (justify left))
    (uuid 90afdf30-a474-4d01-8c04-ee2769ced9ec)
    (property "Intersheetrefs" "${INTERSHEET_REFS}" (at 118.6693 37.592 0)
      (effects (font (size 1.27 1.27)) (justify left) hide)
    )
  )
  (global_label "R{slash}W" (shape input) (at 112.014 45.212 0) (fields_autoplaced)
    (effects (font (size 1.27 1.27)) (justify left))
    (uuid 999e5dbe-377d-4261-9fa3-8552fbdfd3f1)
    (property "Intersheetrefs" "${INTERSHEET_REFS}" (at 118.9717 45.212 0)
      (effects (font (size 1.27 1.27)) (justify left) hide)
    )
  )
  (global_label "BLA" (shape input) (at 147.32 60.198 180) (fields_autoplaced)
    (effects (font (size 1.27 1.27)) (justify right))
    (uuid b7178de5-4003-4529-a536-6641a3de6818)
    (property "Intersheetrefs" "${INTERSHEET_REFS}" (at 141.0275 60.198 0)
      (effects (font (size 1.27 1.27)) (justify right) hide)
    )
  )
  (global_label "DB6" (shape input) (at 147.32 55.118 180) (fields_autoplaced)
    (effects (font (size 1.27 1.27)) (justify right))
    (uuid b795dd2d-825d-4222-ae62-7299b3b276a2)
    (property "Intersheetrefs" "${INTERSHEET_REFS}" (at 140.6647 55.118 0)
      (effects (font (size 1.27 1.27)) (justify right) hide)
    )
  )
  (global_label "R{slash}W" (shape input) (at 147.32 34.798 180) (fields_autoplaced)
    (effects (font (size 1.27 1.27)) (justify right))
    (uuid b9381f95-1afd-4b39-99ac-0db441ed0194)
    (property "Intersheetrefs" "${INTERSHEET_REFS}" (at 140.3623 34.798 0)
      (effects (font (size 1.27 1.27)) (justify right) hide)
    )
  )
  (global_label "DB5" (shape input) (at 112.014 35.052 0) (fields_autoplaced)
    (effects (font (size 1.27 1.27)) (justify left))
    (uuid cc6b6071-8a27-433e-9252-be57a220769a)
    (property "Intersheetrefs" "${INTERSHEET_REFS}" (at 118.6693 35.052 0)
      (effects (font (size 1.27 1.27)) (justify left) hide)
    )
  )
  (global_label "RS" (shape input) (at 112.268 42.672 0) (fields_autoplaced)
    (effects (font (size 1.27 1.27)) (justify left))
    (uuid d901088b-03a5-4e2b-9144-8e79cedcf9b0)
    (property "Intersheetrefs" "${INTERSHEET_REFS}" (at 117.6533 42.672 0)
      (effects (font (size 1.27 1.27)) (justify left) hide)
    )
  )
  (global_label "DB5" (shape input) (at 147.32 52.578 180) (fields_autoplaced)
    (effects (font (size 1.27 1.27)) (justify right))
    (uuid e735a2d3-c430-46c2-95e4-8b059d85fb20)
    (property "Intersheetrefs" "${INTERSHEET_REFS}" (at 140.6647 52.578 0)
      (effects (font (size 1.27 1.27)) (justify right) hide)
    )
  )
  (global_label "VO" (shape input) (at 29.464 91.694 0) (fields_autoplaced)
    (effects (font (size 1.27 1.27)) (justify left))
    (uuid f1a05789-ebac-40cf-8d66-3c17d8b6354d)
    (property "Intersheetrefs" "${INTERSHEET_REFS}" (at 34.7889 91.694 0)
      (effects (font (size 1.27 1.27)) (justify left) hide)
    )
  )
  (global_label "DB7" (shape input) (at 112.014 40.132 0) (fields_autoplaced)
    (effects (font (size 1.27 1.27)) (justify left))
    (uuid f38065d0-2fca-4489-b118-4f6b978d7d2e)
    (property "Intersheetrefs" "${INTERSHEET_REFS}" (at 118.6693 40.132 0)
      (effects (font (size 1.27 1.27)) (justify left) hide)
    )
  )
  (global_label "E" (shape input) (at 112.014 47.752 0) (fields_autoplaced)
    (effects (font (size 1.27 1.27)) (justify left))
    (uuid f44f023c-4fa8-4ad8-b204-a6c51cb967f8)
    (property "Intersheetrefs" "${INTERSHEET_REFS}" (at 116.0688 47.752 0)
      (effects (font (size 1.27 1.27)) (justify left) hide)
    )
  )
  (global_label "VO" (shape input) (at 147.32 29.718 180) (fields_autoplaced)
    (effects (font (size 1.27 1.27)) (justify right))
    (uuid f5354a97-9c46-4613-be7f-d6783bff6dac)
    (property "Intersheetrefs" "${INTERSHEET_REFS}" (at 141.9951 29.718 0)
      (effects (font (size 1.27 1.27)) (justify right) hide)
    )
  )

  (symbol (lib_id "Diode:1N4148") (at 123.19 62.992 90) (mirror x) (unit 1)
    (in_bom yes) (on_board yes) (dnp no)
    (uuid 019ea8b3-fe8c-40bd-8e15-2ec180c9c032)
    (property "Reference" "D2" (at 120.1674 60.452 0)
      (effects (font (size 1.778 1.5113)) (justify left bottom))
    )
    (property "Value" "1N4148" (at 125.5014 65.532 0)
      (effects (font (size 1.778 1.5113)) (justify left bottom) hide)
    )
    (property "Footprint" "Diode_THT:D_DO-35_SOD27_P7.62mm_Horizontal" (at 123.19 62.992 0)
      (effects (font (size 1.27 1.27)) hide)
    )
    (property "Datasheet" "" (at 123.19 62.992 0)
      (effects (font (size 1.27 1.27)) hide)
    )
    (pin "1" (uuid 342dfbfd-9867-4656-b057-05ed50fa7f1d))
    (pin "2" (uuid b22dae80-7529-41e8-932b-0f9a84d9a4a5))
    (instances
      (project "HD44780-I2C-Display"
        (path "/af8ad80f-3613-4b36-9b85-6075727fe1d0"
          (reference "D2") (unit 1)
        )
      )
    )
  )

  (symbol (lib_id "power:+3.3V") (at 36.322 22.352 0) (unit 1)
    (in_bom yes) (on_board yes) (dnp no)
    (uuid 041d4091-6a31-4bfe-966a-a355a1ce127e)
    (property "Reference" "#PWR09" (at 36.322 26.162 0)
      (effects (font (size 1.27 1.27)) hide)
    )
    (property "Value" "+3.3V" (at 36.322 18.034 0)
      (effects (font (size 1.27 1.27)))
    )
    (property "Footprint" "" (at 36.322 22.352 0)
      (effects (font (size 1.27 1.27)) hide)
    )
    (property "Datasheet" "" (at 36.322 22.352 0)
      (effects (font (size 1.27 1.27)) hide)
    )
    (pin "1" (uuid 8cba6bcb-c881-4d32-9166-e769857e4699))
    (instances
      (project "HD44780-I2C-Display"
        (path "/af8ad80f-3613-4b36-9b85-6075727fe1d0"
          (reference "#PWR09") (unit 1)
        )
      )
    )
  )

  (symbol (lib_id "power:+5V") (at 131.826 69.596 0) (unit 1)
    (in_bom yes) (on_board yes) (dnp no) (fields_autoplaced)
    (uuid 13ca0c9f-de77-4939-ba72-0b13337b52bc)
    (property "Reference" "#PWR08" (at 131.826 73.406 0)
      (effects (font (size 1.27 1.27)) hide)
    )
    (property "Value" "+5V" (at 131.826 66.294 0)
      (effects (font (size 1.27 1.27)))
    )
    (property "Footprint" "" (at 131.826 69.596 0)
      (effects (font (size 1.27 1.27)) hide)
    )
    (property "Datasheet" "" (at 131.826 69.596 0)
      (effects (font (size 1.27 1.27)) hide)
    )
    (pin "1" (uuid eb627ebe-694b-4fcb-8787-f12550821ba8))
    (instances
      (project "HD44780-I2C-Display"
        (path "/af8ad80f-3613-4b36-9b85-6075727fe1d0"
          (reference "#PWR08") (unit 1)
        )
      )
    )
  )

  (symbol (lib_id "power:+5V") (at 22.098 22.352 0) (unit 1)
    (in_bom yes) (on_board yes) (dnp no) (fields_autoplaced)
    (uuid 4eb65ee9-8f7d-49fc-bcc8-483b5c052f2c)
    (property "Reference" "#PWR02" (at 22.098 26.162 0)
      (effects (font (size 1.27 1.27)) hide)
    )
    (property "Value" "+5V" (at 22.098 19.05 0)
      (effects (font (size 1.27 1.27)))
    )
    (property "Footprint" "" (at 22.098 22.352 0)
      (effects (font (size 1.27 1.27)) hide)
    )
    (property "Datasheet" "" (at 22.098 22.352 0)
      (effects (font (size 1.27 1.27)) hide)
    )
    (pin "1" (uuid a7b8e874-7d36-4119-bfe1-d4df9d3585c7))
    (instances
      (project "HD44780-I2C-Display"
        (path "/af8ad80f-3613-4b36-9b85-6075727fe1d0"
          (reference "#PWR02") (unit 1)
        )
      )
    )
  )

  (symbol (lib_id "power:GND") (at 22.098 35.814 0) (unit 1)
    (in_bom yes) (on_board yes) (dnp no)
    (uuid 52999e98-3bac-4271-8bb7-997684b678c4)
    (property "Reference" "#GND01" (at 22.098 35.814 0)
      (effects (font (size 1.27 1.27)) hide)
    )
    (property "Value" "GND" (at 19.558 41.529 0)
      (effects (font (size 1.778 1.5113)) (justify left bottom))
    )
    (property "Footprint" "" (at 22.098 35.814 0)
      (effects (font (size 1.27 1.27)) hide)
    )
    (property "Datasheet" "" (at 22.098 35.814 0)
      (effects (font (size 1.27 1.27)) hide)
    )
    (pin "1" (uuid 89199d72-ce78-47b6-a729-a394a5777346))
    (instances
      (project "HD44780-I2C-Display"
        (path "/af8ad80f-3613-4b36-9b85-6075727fe1d0"
          (reference "#GND01") (unit 1)
        )
      )
    )
  )

  (symbol (lib_id "power:PWR_FLAG") (at 20.828 26.162 90) (unit 1)
    (in_bom yes) (on_board yes) (dnp no)
    (uuid 58b12f3f-f1cd-4081-9812-e38b3f615815)
    (property "Reference" "#FLG0101" (at 18.923 26.162 0)
      (effects (font (size 1.27 1.27)) hide)
    )
    (property "Value" "PWR_FLAG" (at 16.51 26.162 0)
      (effects (font (size 1.27 1.27)) hide)
    )
    (property "Footprint" "" (at 20.828 26.162 0)
      (effects (font (size 1.27 1.27)) hide)
    )
    (property "Datasheet" "~" (at 20.828 26.162 0)
      (effects (font (size 1.27 1.27)) hide)
    )
    (pin "1" (uuid f921f375-fef3-4bc9-8882-beef6279e513))
    (instances
      (project "HD44780-I2C-Display"
        (path "/af8ad80f-3613-4b36-9b85-6075727fe1d0"
          (reference "#FLG0101") (unit 1)
        )
      )
    )
  )

  (symbol (lib_id "power:GND") (at 33.528 74.168 0) (unit 1)
    (in_bom yes) (on_board yes) (dnp no)
    (uuid 59e9bc00-d592-4736-8a82-b4ade0ebcb52)
    (property "Reference" "#GND06" (at 33.528 74.168 0)
      (effects (font (size 1.27 1.27)) hide)
    )
    (property "Value" "GND" (at 26.924 77.216 0)
      (effects (font (size 1.778 1.5113)) (justify left bottom))
    )
    (property "Footprint" "" (at 33.528 74.168 0)
      (effects (font (size 1.27 1.27)) hide)
    )
    (property "Datasheet" "" (at 33.528 74.168 0)
      (effects (font (size 1.27 1.27)) hide)
    )
    (pin "1" (uuid a145fd27-4674-4547-93d0-c37735af429d))
    (instances
      (project "HD44780-I2C-Display"
        (path "/af8ad80f-3613-4b36-9b85-6075727fe1d0"
          (reference "#GND06") (unit 1)
        )
      )
    )
  )

  (symbol (lib_id "HD44780-I2C-Display:PCF8574P") (at 91.694 40.132 0) (unit 1)
    (in_bom yes) (on_board yes) (dnp no)
    (uuid 5dbd1f0c-9596-4eeb-a684-1cf95df8b1dd)
    (property "Reference" "IC1" (at 84.074 23.622 0)
      (effects (font (size 1.778 1.5113)) (justify left bottom))
    )
    (property "Value" "PCF8574P" (at 84.074 60.452 0)
      (effects (font (size 1.778 1.5113)) (justify left bottom))
    )
    (property "Footprint" "Package_DIP:DIP-16_W7.62mm" (at 91.694 40.132 0)
      (effects (font (size 1.27 1.27)) hide)
    )
    (property "Datasheet" "https://www.ti.com/lit/ds/symlink/pcf8574.pdf" (at 91.694 40.132 0)
      (effects (font (size 1.27 1.27)) hide)
    )
    (pin "1" (uuid c5349034-2036-4e3f-9351-09895a95bf9a))
    (pin "10" (uuid 9901812b-d555-4e67-953b-029d4384b456))
    (pin "11" (uuid 9fb87400-cfa4-45f9-8ab3-05cbcee5efa4))
    (pin "12" (uuid 8730f294-3ee0-41c7-8009-b34f0fdfe15e))
    (pin "13" (uuid 89dab696-90c0-4a2b-8185-b9fa314669ce))
    (pin "14" (uuid 2306f010-9a2d-402d-80ab-71f0fb67b3d5))
    (pin "15" (uuid eee47300-7b88-45ef-84a1-71561af7ee08))
    (pin "16" (uuid ba1d366f-affd-4bbb-b5a0-38a5c64165ad))
    (pin "2" (uuid bf8897da-05a6-4e83-af96-5e55ba7cf07f))
    (pin "3" (uuid a21870b3-0d3b-4c01-9b9c-d99c632674fb))
    (pin "4" (uuid 3e897b5c-b324-442a-89fb-a0b68d3138b3))
    (pin "5" (uuid 341dce9c-2149-427c-b17c-7dbd024af85b))
    (pin "6" (uuid 34d392da-aaaa-4d84-8c7a-b434841e4f42))
    (pin "7" (uuid 90a397fa-0440-4314-80da-13ba31f5decb))
    (pin "8" (uuid 030a22af-35ee-4da5-a574-9066dd523288))
    (pin "9" (uuid 907fb637-58b1-4896-b9f5-e8236f3498ff))
    (instances
      (project "HD44780-I2C-Display"
        (path "/af8ad80f-3613-4b36-9b85-6075727fe1d0"
          (reference "IC1") (unit 1)
        )
      )
    )
  )

  (symbol (lib_id "Connector_Generic:Conn_01x16") (at 154.178 42.418 0) (unit 1)
    (in_bom yes) (on_board yes) (dnp no) (fields_autoplaced)
    (uuid 634a3f2e-7674-4708-a6b2-9f2ccbe0f3d0)
    (property "Reference" "J4" (at 156.21 43.053 0)
      (effects (font (size 1.27 1.27)) (justify left))
    )
    (property "Value" "LCD2004 / HD44780" (at 156.21 45.593 0)
      (effects (font (size 1.27 1.27)) (justify left))
    )
    (property "Footprint" "Connector_PinSocket_2.54mm:PinSocket_1x16_P2.54mm_Vertical" (at 154.178 42.418 0)
      (effects (font (size 1.27 1.27)) hide)
    )
    (property "Datasheet" "~" (at 154.178 42.418 0)
      (effects (font (size 1.27 1.27)) hide)
    )
    (pin "1" (uuid 3268bb72-8c3d-4980-8518-a8a4a46ab3bb))
    (pin "10" (uuid 1c061430-e097-4b4f-bd19-9d9e9cd22053))
    (pin "11" (uuid e2238cf4-4ead-423b-9520-0e300c6683d0))
    (pin "12" (uuid e2ecde92-6d02-4810-b937-32aa596b3239))
    (pin "13" (uuid 80d23d79-d6c0-4854-86aa-554025795453))
    (pin "14" (uuid 2082919e-cc8b-4535-969d-5d0eeaed2aa4))
    (pin "15" (uuid 115efb2b-864c-474c-af3d-90dec27dedec))
    (pin "16" (uuid 6cb2c201-9a9b-47ef-942f-ffe202be5305))
    (pin "2" (uuid 0a169a6c-2bc7-46f7-8685-88c5dc2670a8))
    (pin "3" (uuid a0c3e875-a62a-4a57-a077-467f98a0281b))
    (pin "4" (uuid 811b72a6-3b28-4bf5-9d32-bfcdc7da627c))
    (pin "5" (uuid 32465f2f-2271-4823-86bf-19f372736ec6))
    (pin "6" (uuid f0ec8265-8fca-46cf-bfae-5c20884d455d))
    (pin "7" (uuid 89ae43b0-eed6-4020-aaab-8e562d34e09e))
    (pin "8" (uuid 1f05d905-14ad-4b2a-94e1-121eccb9ac64))
    (pin "9" (uuid 3af8f00c-1c59-4677-af16-edcc42728796))
    (instances
      (project "HD44780-I2C-Display"
        (path "/af8ad80f-3613-4b36-9b85-6075727fe1d0"
          (reference "J4") (unit 1)
        )
      )
    )
  )

  (symbol (lib_id "power:GND") (at 107.442 59.944 0) (unit 1)
    (in_bom yes) (on_board yes) (dnp no)
    (uuid 63517334-a1b0-45ea-a792-1e45e23094aa)
    (property "Reference" "#GND02" (at 107.442 59.944 0)
      (effects (font (size 1.27 1.27)) hide)
    )
    (property "Value" "GND" (at 104.902 65.659 0)
      (effects (font (size 1.778 1.5113)) (justify left bottom))
    )
    (property "Footprint" "" (at 107.442 59.944 0)
      (effects (font (size 1.27 1.27)) hide)
    )
    (property "Datasheet" "" (at 107.442 59.944 0)
      (effects (font (size 1.27 1.27)) hide)
    )
    (pin "1" (uuid 8a46a7df-6d9e-4b4e-8e0d-070643b3c772))
    (instances
      (project "HD44780-I2C-Display"
        (path "/af8ad80f-3613-4b36-9b85-6075727fe1d0"
          (reference "#GND02") (unit 1)
        )
      )
    )
  )

  (symbol (lib_id "Device:R_US") (at 39.624 25.146 180) (unit 1)
    (in_bom yes) (on_board yes) (dnp no)
    (uuid 6db3665a-7a4c-435c-9ce9-32f77e43a5e3)
    (property "Reference" "R4" (at 43.942 22.352 0)
      (effects (font (size 1.778 1.5113)) (justify left bottom))
    )
    (property "Value" "4.7k" (at 45.72 25.4 0)
      (effects (font (size 1.778 1.5113)) (justify left bottom))
    )
    (property "Footprint" "Resistor_THT:R_Axial_DIN0207_L6.3mm_D2.5mm_P10.16mm_Horizontal" (at 38.608 24.892 90)
      (effects (font (size 1.27 1.27)) hide)
    )
    (property "Datasheet" "~" (at 39.624 25.146 0)
      (effects (font (size 1.27 1.27)) hide)
    )
    (pin "1" (uuid 04695488-dc9d-4fa6-94a8-fbd72f102c36))
    (pin "2" (uuid 65a3aa07-49bf-411f-a3e3-4820eb7e6bca))
    (instances
      (project "HD44780-I2C-Display"
        (path "/af8ad80f-3613-4b36-9b85-6075727fe1d0"
          (reference "R4") (unit 1)
        )
      )
    )
  )

  (symbol (lib_id "Connector_Generic:Conn_02x03_Odd_Even") (at 31.242 30.734 0) (mirror y) (unit 1)
    (in_bom yes) (on_board yes) (dnp no)
    (uuid 70d66171-6622-4591-9401-60d1ff65c7a2)
    (property "Reference" "J0" (at 32.004 26.416 0)
      (effects (font (size 1.778 1.5113)) (justify left bottom))
    )
    (property "Value" "I2C" (at 32.004 37.592 0)
      (effects (font (size 1.778 1.5113)) (justify left bottom))
    )
    (property "Footprint" "Connector_PinHeader_2.54mm:PinHeader_2x03_P2.54mm_Vertical" (at 31.242 30.734 0)
      (effects (font (size 1.27 1.27)) hide)
    )
    (property "Datasheet" "~" (at 31.242 30.734 0)
      (effects (font (size 1.27 1.27)) hide)
    )
    (pin "1" (uuid 1ca3fbdf-31d2-41af-806a-c20c7154d470))
    (pin "2" (uuid 6e06c28e-48d4-4502-ab5f-fc81060ec8ff))
    (pin "3" (uuid 27e44c52-8bb4-46b5-b5e6-8c0ecfe84457))
    (pin "4" (uuid 34efd817-d1cb-468d-908c-5b203172baaf))
    (pin "5" (uuid 448cc6bd-1448-4638-b331-ef147d2abf26))
    (pin "6" (uuid bed7f101-c41b-45ab-9ea4-24f6365c4f56))
    (instances
      (project "HD44780-I2C-Display"
        (path "/af8ad80f-3613-4b36-9b85-6075727fe1d0"
          (reference "J0") (unit 1)
        )
      )
    )
  )

  (symbol (lib_id "Device:R_Small_US") (at 33.528 55.118 180) (unit 1)
    (in_bom yes) (on_board yes) (dnp no)
    (uuid 78c4df3b-d052-4641-a85a-cb5b1fb2ae4a)
    (property "Reference" "R7" (at 32.258 51.943 0)
      (effects (font (size 1.778 1.5113)) (justify left bottom))
    )
    (property "Value" "4.7k" (at 32.258 54.61 0)
      (effects (font (size 1.778 1.5113)) (justify left bottom))
    )
    (property "Footprint" "Resistor_THT:R_Axial_DIN0207_L6.3mm_D2.5mm_P10.16mm_Horizontal" (at 33.528 55.118 0)
      (effects (font (size 1.27 1.27)) hide)
    )
    (property "Datasheet" "~" (at 33.528 55.118 0)
      (effects (font (size 1.27 1.27)) hide)
    )
    (pin "1" (uuid 249906fb-3bd2-4263-b83f-5bdb5f1ee7d1))
    (pin "2" (uuid bf950472-b8e8-4243-bb16-f4bf681f6518))
    (instances
      (project "HD44780-I2C-Display"
        (path "/af8ad80f-3613-4b36-9b85-6075727fe1d0"
          (reference "R7") (unit 1)
        )
      )
    )
  )

  (symbol (lib_id "power:+5V") (at 24.384 86.868 0) (unit 1)
    (in_bom yes) (on_board yes) (dnp no)
    (uuid 943aa564-48a1-42ce-8473-df4c521e2ac5)
    (property "Reference" "#PWR07" (at 24.384 90.678 0)
      (effects (font (size 1.27 1.27)) hide)
    )
    (property "Value" "+5V" (at 24.384 83.566 0)
      (effects (font (size 1.27 1.27)))
    )
    (property "Footprint" "" (at 24.384 86.868 0)
      (effects (font (size 1.27 1.27)) hide)
    )
    (property "Datasheet" "" (at 24.384 86.868 0)
      (effects (font (size 1.27 1.27)) hide)
    )
    (pin "1" (uuid 67d9f8ad-c1f2-4880-a87f-fe7de00fb2f6))
    (instances
      (project "HD44780-I2C-Display"
        (path "/af8ad80f-3613-4b36-9b85-6075727fe1d0"
          (reference "#PWR07") (unit 1)
        )
      )
    )
  )

  (symbol (lib_id "power:+3.3V") (at 104.394 24.638 0) (unit 1)
    (in_bom yes) (on_board yes) (dnp no) (fields_autoplaced)
    (uuid b045bac2-3d16-4d8a-8e1e-31d25f3fd519)
    (property "Reference" "#PWR03" (at 104.394 28.448 0)
      (effects (font (size 1.27 1.27)) hide)
    )
    (property "Value" "+3.3V" (at 104.394 21.082 0)
      (effects (font (size 1.27 1.27)))
    )
    (property "Footprint" "" (at 104.394 24.638 0)
      (effects (font (size 1.27 1.27)) hide)
    )
    (property "Datasheet" "" (at 104.394 24.638 0)
      (effects (font (size 1.27 1.27)) hide)
    )
    (pin "1" (uuid fd920d70-5678-4efb-bdb9-a22692017d03))
    (instances
      (project "HD44780-I2C-Display"
        (path "/af8ad80f-3613-4b36-9b85-6075727fe1d0"
          (reference "#PWR03") (unit 1)
        )
      )
    )
  )

  (symbol (lib_id "Diode:1N4148") (at 123.19 71.374 90) (mirror x) (unit 1)
    (in_bom yes) (on_board yes) (dnp no)
    (uuid b0979ed6-808c-47f6-acaf-49138207b44c)
    (property "Reference" "D1" (at 120.1674 68.834 0)
      (effects (font (size 1.778 1.5113)) (justify left bottom))
    )
    (property "Value" "1N4148" (at 125.984 62.484 0)
      (effects (font (size 1.778 1.5113)) (justify left bottom))
    )
    (property "Footprint" "Diode_THT:D_DO-35_SOD27_P7.62mm_Horizontal" (at 123.19 71.374 0)
      (effects (font (size 1.27 1.27)) hide)
    )
    (property "Datasheet" "" (at 123.19 71.374 0)
      (effects (font (size 1.27 1.27)) hide)
    )
    (pin "1" (uuid cd621500-e176-4538-b5e0-f2f9c5ec3e4a))
    (pin "2" (uuid 1a2a79ad-0991-41e6-8e26-1023df9ece58))
    (instances
      (project "HD44780-I2C-Display"
        (path "/af8ad80f-3613-4b36-9b85-6075727fe1d0"
          (reference "D1") (unit 1)
        )
      )
    )
  )

  (symbol (lib_id "power:+3.3V") (at 44.45 19.812 0) (unit 1)
    (in_bom yes) (on_board yes) (dnp no) (fields_autoplaced)
    (uuid b67eb311-81cd-4bcc-975e-7b3c5cd25d08)
    (property "Reference" "#PWR05" (at 44.45 23.622 0)
      (effects (font (size 1.27 1.27)) hide)
    )
    (property "Value" "+3.3V" (at 44.45 16.256 0)
      (effects (font (size 1.27 1.27)))
    )
    (property "Footprint" "" (at 44.45 19.812 0)
      (effects (font (size 1.27 1.27)) hide)
    )
    (property "Datasheet" "" (at 44.45 19.812 0)
      (effects (font (size 1.27 1.27)) hide)
    )
    (pin "1" (uuid 5dbb55b5-3123-46a8-90bc-3be23691d88f))
    (instances
      (project "HD44780-I2C-Display"
        (path "/af8ad80f-3613-4b36-9b85-6075727fe1d0"
          (reference "#PWR05") (unit 1)
        )
      )
    )
  )

  (symbol (lib_id "power:PWR_FLAG") (at 36.322 25.908 90) (unit 1)
    (in_bom yes) (on_board yes) (dnp no)
    (uuid c40da724-9419-4f28-920b-17c3e489ff48)
    (property "Reference" "#FLG01" (at 34.417 25.908 0)
      (effects (font (size 1.27 1.27)) hide)
    )
    (property "Value" "PWR_FLAG" (at 32.512 20.32 0)
      (effects (font (size 1.27 1.27)) hide)
    )
    (property "Footprint" "" (at 36.322 25.908 0)
      (effects (font (size 1.27 1.27)) hide)
    )
    (property "Datasheet" "~" (at 36.322 25.908 0)
      (effects (font (size 1.27 1.27)) hide)
    )
    (pin "1" (uuid 7e3a989c-12b7-48b4-becc-d15bbb120e22))
    (instances
      (project "HD44780-I2C-Display"
        (path "/af8ad80f-3613-4b36-9b85-6075727fe1d0"
          (reference "#FLG01") (unit 1)
        )
      )
    )
  )

  (symbol (lib_id "power:PWR_FLAG") (at 18.542 33.274 90) (unit 1)
    (in_bom yes) (on_board yes) (dnp no)
    (uuid c67cc3dc-f1ac-4786-a8d7-1657b46ba75d)
    (property "Reference" "#FLG0103" (at 16.637 33.274 0)
      (effects (font (size 1.27 1.27)) hide)
    )
    (property "Value" "PWR_FLAG" (at 16.637 39.624 0)
      (effects (font (size 1.27 1.27)) hide)
    )
    (property "Footprint" "" (at 18.542 33.274 0)
      (effects (font (size 1.27 1.27)) hide)
    )
    (property "Datasheet" "~" (at 18.542 33.274 0)
      (effects (font (size 1.27 1.27)) hide)
    )
    (pin "1" (uuid fc71a636-b102-4174-9103-9db8394eff7a))
    (instances
      (project "HD44780-I2C-Display"
        (path "/af8ad80f-3613-4b36-9b85-6075727fe1d0"
          (reference "#FLG0103") (unit 1)
        )
      )
    )
  )

  (symbol (lib_id "Device:R_Potentiometer_Trim_US") (at 24.384 91.694 0) (mirror x) (unit 1)
    (in_bom yes) (on_board yes) (dnp no)
    (uuid ca2b666b-3064-4fa3-9c2a-548243015925)
    (property "Reference" "R1" (at 21.844 87.249 90)
      (effects (font (size 1.778 1.5113)) (justify left bottom))
    )
    (property "Value" "2k" (at 21.844 91.059 90)
      (effects (font (size 1.778 1.5113)) (justify left bottom))
    )
    (property "Footprint" "Potentiometer_THT:Potentiometer_Bourns_3299W_Vertical" (at 24.384 91.694 0)
      (effects (font (size 1.27 1.27)) hide)
    )
    (property "Datasheet" "[3296W-1-202LF]" (at 24.384 91.694 0)
      (effects (font (size 1.27 1.27)) hide)
    )
    (pin "1" (uuid 367388ab-7a2b-4902-99a0-263799ea63fa))
    (pin "2" (uuid 5c3c3c61-75ab-41e2-9827-3ae9a3f93f3e))
    (pin "3" (uuid d820bf10-8772-4cf0-beb5-87d9c6da9fdc))
    (instances
      (project "HD44780-I2C-Display"
        (path "/af8ad80f-3613-4b36-9b85-6075727fe1d0"
          (reference "R1") (unit 1)
        )
      )
    )
  )

  (symbol (lib_id "Device:R_Small_US") (at 19.558 55.118 180) (unit 1)
    (in_bom yes) (on_board yes) (dnp no)
    (uuid cf84e1a5-4d67-47e5-bfe1-feabecd7f0f8)
    (property "Reference" "R6" (at 18.288 51.943 0)
      (effects (font (size 1.778 1.5113)) (justify left bottom))
    )
    (property "Value" "4.7k" (at 18.288 54.61 0)
      (effects (font (size 1.778 1.5113)) (justify left bottom))
    )
    (property "Footprint" "Resistor_THT:R_Axial_DIN0207_L6.3mm_D2.5mm_P10.16mm_Horizontal" (at 19.558 55.118 0)
      (effects (font (size 1.27 1.27)) hide)
    )
    (property "Datasheet" "~" (at 19.558 55.118 0)
      (effects (font (size 1.27 1.27)) hide)
    )
    (pin "1" (uuid c1adf3dd-565a-43b0-a30c-be75dcdd554b))
    (pin "2" (uuid 8ecc3d6c-1207-4135-8c16-54955a6fbf9b))
    (instances
      (project "HD44780-I2C-Display"
        (path "/af8ad80f-3613-4b36-9b85-6075727fe1d0"
          (reference "R6") (unit 1)
        )
      )
    )
  )

  (symbol (lib_id "power:+3.3V") (at 33.528 49.53 0) (unit 1)
    (in_bom yes) (on_board yes) (dnp no) (fields_autoplaced)
    (uuid d2700b37-c1d1-4099-b05d-a4d3c5c59c36)
    (property "Reference" "#PWR01" (at 33.528 53.34 0)
      (effects (font (size 1.27 1.27)) hide)
    )
    (property "Value" "+3.3V" (at 33.528 45.974 0)
      (effects (font (size 1.27 1.27)))
    )
    (property "Footprint" "" (at 33.528 49.53 0)
      (effects (font (size 1.27 1.27)) hide)
    )
    (property "Datasheet" "" (at 33.528 49.53 0)
      (effects (font (size 1.27 1.27)) hide)
    )
    (pin "1" (uuid 93e85c96-05ce-4560-9f39-1b5533d1b60a))
    (instances
      (project "HD44780-I2C-Display"
        (path "/af8ad80f-3613-4b36-9b85-6075727fe1d0"
          (reference "#PWR01") (unit 1)
        )
      )
    )
  )

  (symbol (lib_id "Transistor_BJT:2N3906") (at 129.286 76.708 0) (mirror x) (unit 1)
    (in_bom yes) (on_board yes) (dnp no)
    (uuid dfdd00a6-a1b5-440c-80cb-0e16fbc937bb)
    (property "Reference" "Q1" (at 131.826 75.438 0)
      (effects (font (size 1.778 1.5113)) (justify left bottom))
    )
    (property "Value" "2N3906" (at 136.398 75.438 0)
      (effects (font (size 1.778 1.5113)) (justify left bottom))
    )
    (property "Footprint" "Package_TO_SOT_THT:TO-92_Inline" (at 134.366 74.803 0)
      (effects (font (size 1.27 1.27) italic) (justify left) hide)
    )
    (property "Datasheet" "https://www.onsemi.com/pub/Collateral/2N3906-D.PDF" (at 129.286 76.708 0)
      (effects (font (size 1.27 1.27)) (justify left) hide)
    )
    (pin "1" (uuid 71fb081c-f9ab-4ef2-87c3-fb609ba12ecc))
    (pin "2" (uuid 52c2e156-d18c-4bca-9296-aac1b542031f))
    (pin "3" (uuid c17f6a61-32b7-4d7a-8992-09624778945c))
    (instances
      (project "HD44780-I2C-Display"
        (path "/af8ad80f-3613-4b36-9b85-6075727fe1d0"
          (reference "Q1") (unit 1)
        )
      )
    )
  )

  (symbol (lib_id "Device:R_Small_US") (at 46.99 55.118 180) (unit 1)
    (in_bom yes) (on_board yes) (dnp no)
    (uuid e5408922-4e65-4ed9-a1f7-ef329f3bbfb7)
    (property "Reference" "R8" (at 45.72 51.943 0)
      (effects (font (size 1.778 1.5113)) (justify left bottom))
    )
    (property "Value" "4.7k" (at 45.72 54.61 0)
      (effects (font (size 1.778 1.5113)) (justify left bottom))
    )
    (property "Footprint" "Resistor_THT:R_Axial_DIN0207_L6.3mm_D2.5mm_P10.16mm_Horizontal" (at 46.99 55.118 0)
      (effects (font (size 1.27 1.27)) hide)
    )
    (property "Datasheet" "~" (at 46.99 55.118 0)
      (effects (font (size 1.27 1.27)) hide)
    )
    (pin "1" (uuid 4a6d60e4-5948-401c-8096-8344e025cc82))
    (pin "2" (uuid 85fa02ba-0aa8-425b-8237-cb37d54297e6))
    (instances
      (project "HD44780-I2C-Display"
        (path "/af8ad80f-3613-4b36-9b85-6075727fe1d0"
          (reference "R8") (unit 1)
        )
      )
    )
  )

  (symbol (lib_id "Device:R_US") (at 131.826 86.868 180) (unit 1)
    (in_bom yes) (on_board yes) (dnp no)
    (uuid e6f0758b-d75f-4f80-a253-b95abc6e80d6)
    (property "Reference" "R2" (at 136.906 83.058 0)
      (effects (font (size 1.778 1.5113)) (justify left bottom))
    )
    (property "Value" "10" (at 138.176 86.868 0)
      (effects (font (size 1.778 1.5113)) (justify left bottom))
    )
    (property "Footprint" "Resistor_THT:R_Axial_DIN0207_L6.3mm_D2.5mm_P10.16mm_Horizontal" (at 130.81 86.614 90)
      (effects (font (size 1.27 1.27)) hide)
    )
    (property "Datasheet" "~" (at 131.826 86.868 0)
      (effects (font (size 1.27 1.27)) hide)
    )
    (pin "1" (uuid e6db55a8-56bb-48c8-93da-bb1a8dc51890))
    (pin "2" (uuid 2c90a6b6-a571-4fb7-9495-c4cbb70c0ae0))
    (instances
      (project "HD44780-I2C-Display"
        (path "/af8ad80f-3613-4b36-9b85-6075727fe1d0"
          (reference "R2") (unit 1)
        )
      )
    )
  )

  (symbol (lib_id "power:GND") (at 24.384 99.314 0) (unit 1)
    (in_bom yes) (on_board yes) (dnp no)
    (uuid ed20ab75-1310-4845-865c-b81baf801dba)
    (property "Reference" "#GND08" (at 24.384 99.314 0)
      (effects (font (size 1.27 1.27)) hide)
    )
    (property "Value" "GND" (at 21.844 105.029 0)
      (effects (font (size 1.778 1.5113)) (justify left bottom))
    )
    (property "Footprint" "" (at 24.384 99.314 0)
      (effects (font (size 1.27 1.27)) hide)
    )
    (property "Datasheet" "" (at 24.384 99.314 0)
      (effects (font (size 1.27 1.27)) hide)
    )
    (pin "1" (uuid b2445f7a-a2d6-4f1c-939e-ab04eb764381))
    (instances
      (project "HD44780-I2C-Display"
        (path "/af8ad80f-3613-4b36-9b85-6075727fe1d0"
          (reference "#GND08") (unit 1)
        )
      )
    )
  )

  (symbol (lib_id "Device:R_US") (at 123.19 54.864 0) (unit 1)
    (in_bom yes) (on_board yes) (dnp no)
    (uuid f2ab325f-44d5-4bf5-8087-176b46a632cc)
    (property "Reference" "R3" (at 118.11 57.404 0)
      (effects (font (size 1.778 1.5113)) (justify left bottom))
    )
    (property "Value" "680" (at 116.205 53.594 0)
      (effects (font (size 1.778 1.5113)) (justify left bottom))
    )
    (property "Footprint" "Resistor_THT:R_Axial_DIN0207_L6.3mm_D2.5mm_P10.16mm_Horizontal" (at 124.206 55.118 90)
      (effects (font (size 1.27 1.27)) hide)
    )
    (property "Datasheet" "~" (at 123.19 54.864 0)
      (effects (font (size 1.27 1.27)) hide)
    )
    (pin "1" (uuid 35709734-9783-4e2d-b1e2-2b69f387c37e))
    (pin "2" (uuid b9f14a72-78ba-4836-8320-7e2b39acfb9d))
    (instances
      (project "HD44780-I2C-Display"
        (path "/af8ad80f-3613-4b36-9b85-6075727fe1d0"
          (reference "R3") (unit 1)
        )
      )
    )
  )

  (symbol (lib_id "Connector_Generic:Conn_02x03_Odd_Even") (at 33.528 67.056 90) (unit 1)
    (in_bom yes) (on_board yes) (dnp no) (fields_autoplaced)
    (uuid fc60a304-ee12-4338-b334-aab42263fd2c)
    (property "Reference" "J5" (at 38.1 65.151 90)
      (effects (font (size 1.27 1.27)) (justify right))
    )
    (property "Value" "Address" (at 38.1 67.691 90)
      (effects (font (size 1.27 1.27)) (justify right))
    )
    (property "Footprint" "Connector_PinHeader_2.54mm:PinHeader_2x03_P2.54mm_Vertical" (at 33.528 67.056 0)
      (effects (font (size 1.27 1.27)) hide)
    )
    (property "Datasheet" "~" (at 33.528 67.056 0)
      (effects (font (size 1.27 1.27)) hide)
    )
    (pin "1" (uuid 5f75f914-963e-4df4-8000-53ffbfa82af4))
    (pin "2" (uuid e72c6e49-0e1b-4f33-b25e-1c2fb20c5fda))
    (pin "3" (uuid aba1cc20-5b5c-4b5e-ac56-27b1ce77585f))
    (pin "4" (uuid eb1bb5b3-e921-421f-8bf9-211b8eac8123))
    (pin "5" (uuid a4134b3e-f7c5-4236-aa4a-1ac7bb92c8dd))
    (pin "6" (uuid e01c594e-b331-4f3d-93a1-a07c0fe9f0da))
    (instances
      (project "HD44780-I2C-Display"
        (path "/af8ad80f-3613-4b36-9b85-6075727fe1d0"
          (reference "J5") (unit 1)
        )
      )
    )
  )

  (symbol (lib_id "Device:R_US") (at 48.26 25.146 180) (unit 1)
    (in_bom yes) (on_board yes) (dnp no)
    (uuid fd06d137-74b9-43a9-9046-7f8d5aa7d3e4)
    (property "Reference" "R5" (at 52.324 22.098 0)
      (effects (font (size 1.778 1.5113)) (justify left bottom))
    )
    (property "Value" "4.7k" (at 54.356 25.146 0)
      (effects (font (size 1.778 1.5113)) (justify left bottom))
    )
    (property "Footprint" "Resistor_THT:R_Axial_DIN0207_L6.3mm_D2.5mm_P10.16mm_Horizontal" (at 47.244 24.892 90)
      (effects (font (size 1.27 1.27)) hide)
    )
    (property "Datasheet" "~" (at 48.26 25.146 0)
      (effects (font (size 1.27 1.27)) hide)
    )
    (pin "1" (uuid 851a073f-db39-4d16-95c6-6f5b7b3b53dd))
    (pin "2" (uuid e043ce4f-e6c2-4dfa-ab05-ccb163a99c02))
    (instances
      (project "HD44780-I2C-Display"
        (path "/af8ad80f-3613-4b36-9b85-6075727fe1d0"
          (reference "R5") (unit 1)
        )
      )
    )
  )

  (sheet_instances
    (path "/" (page "1"))
  )
)
